{
	"id": "bb4b6b76-aefc-49ee-8abb-e87bb13aa7e4",
	"name": "LuboGo",
	"description": null,
	"auth": null,
	"events": null,
	"variables": [],
	"order": [],
	"folders_order": [
		"31e2c8f9-3f91-40e9-8d33-bac1529e4ec4",
		"cb26172b-5b71-4cc5-8bca-d5ee09b0c913",
		"815eabc6-12e1-477e-bbdf-a63fb4eddde7",
		"fc099b37-da05-4e4b-bfc0-5a618439e0bf",
		"e17e503e-cf3b-4149-b662-f6dc817165eb",
		"7c4d6a41-697d-4082-9bef-f2ce0a087171",
		"c85d4938-b5b7-432e-9446-95bdcc16d98f",
		"f73fc0d7-9a50-4739-ad46-e0f90072f508"
	],
	"protocolProfileBehavior": {},
	"folders": [
		{
			"id": "e17e503e-cf3b-4149-b662-f6dc817165eb",
			"name": "Administracion Ciudad",
			"description": null,
			"auth": null,
			"events": null,
			"collection": "bb4b6b76-aefc-49ee-8abb-e87bb13aa7e4",
			"folder": null,
			"order": [
				"bf1b2a2e-c19b-42a3-8d5c-811af9b139df"
			],
			"folders_order": [],
			"protocolProfileBehavior": {}
		},
		{
			"id": "7c4d6a41-697d-4082-9bef-f2ce0a087171",
			"name": "Administracion General",
			"description": null,
			"auth": null,
			"events": null,
			"collection": "bb4b6b76-aefc-49ee-8abb-e87bb13aa7e4",
			"folder": null,
			"order": [
				"b6489d2d-083c-42f4-af93-bda17fea07f0"
			],
			"folders_order": [],
			"protocolProfileBehavior": {}
		},
		{
			"id": "f73fc0d7-9a50-4739-ad46-e0f90072f508",
			"name": "Datos Generales",
			"description": null,
			"auth": null,
			"events": null,
			"collection": "bb4b6b76-aefc-49ee-8abb-e87bb13aa7e4",
			"folder": null,
			"order": [
				"32e6d95b-df06-4e10-a8a3-e5743d6231cf",
				"093bbcb8-fec9-475a-be0e-791a1e12628a",
				"e7c83574-8511-48af-a93a-b6d3c281573c"
			],
			"folders_order": [
				"81d2a7f5-404f-4ab8-aea0-f117cb6cee3f"
			],
			"protocolProfileBehavior": {}
		},
		{
			"id": "81d2a7f5-404f-4ab8-aea0-f117cb6cee3f",
			"name": "Direcciones",
			"description": null,
			"auth": null,
			"events": null,
			"collection": "bb4b6b76-aefc-49ee-8abb-e87bb13aa7e4",
			"folder": "f73fc0d7-9a50-4739-ad46-e0f90072f508",
			"order": [
				"a15e0f7b-cf85-49c2-80b6-61705ef3232a",
				"60bf2102-72b1-44d9-b746-fca8a5ca9b0a",
				"52584b85-881a-4289-ad5d-7b1bd8461439",
				"ada20ec9-1b73-4c3f-9964-befefad82350",
				"692e98be-86e3-4e59-9ec1-ad356603f5b8"
			],
			"folders_order": [],
			"protocolProfileBehavior": {}
		},
		{
			"id": "fc099b37-da05-4e4b-bfc0-5a618439e0bf",
			"name": "Establecimiento",
			"description": null,
			"auth": null,
			"events": null,
			"collection": "bb4b6b76-aefc-49ee-8abb-e87bb13aa7e4",
			"folder": null,
			"order": [
				"fc46fe71-d3da-4b40-9f3b-509a3760169c",
				"d8533adc-dfb6-414e-bed3-c8b2a91f7273",
				"cfeed31d-10cb-4353-b655-6b919a95d4bc",
				"8457d4de-60a0-4098-9fca-3a36af7acf42",
				"9a220736-8640-4366-9550-2d83959a891f",
				"a51c858d-e3da-460c-93b7-a511ea34607f",
				"583ea586-c4eb-4f20-ad90-182a711e15dd"
			],
			"folders_order": [],
			"protocolProfileBehavior": {}
		},
		{
			"id": "c85d4938-b5b7-432e-9446-95bdcc16d98f",
			"name": "Recuperación de password",
			"description": "1. Envío del código de verificación al correo del usuario.\n2. Verificación del código.\n3. Actualización del password.",
			"auth": null,
			"events": [
				{
					"listen": "prerequest",
					"script": {
						"id": "4c92b303-87c4-49e5-a1f7-4dbbc1915f5b",
						"type": "text/javascript",
						"exec": [
							""
						]
					}
				},
				{
					"listen": "test",
					"script": {
						"id": "749c2332-6666-4c6e-9087-d826535fd3ef",
						"type": "text/javascript",
						"exec": [
							""
						]
					}
				}
			],
			"collection": "bb4b6b76-aefc-49ee-8abb-e87bb13aa7e4",
			"folder": null,
			"order": [
				"37b4d028-6737-4cc4-b0bb-0b52db3d8f51",
				"2200002a-12e6-4ee4-87a0-e6f66b77676e",
				"7ebabfe7-bae4-497e-a0c2-6e4a1d39db0a"
			],
			"folders_order": [],
			"protocolProfileBehavior": {}
		},
		{
			"id": "31e2c8f9-3f91-40e9-8d33-bac1529e4ec4",
			"name": "Registro",
			"description": null,
			"auth": null,
			"events": null,
			"collection": "bb4b6b76-aefc-49ee-8abb-e87bb13aa7e4",
			"folder": null,
			"order": [
				"c64349f5-c7b7-41f9-bd68-c51c315ad526",
				"5b04db96-0ae2-4286-98c2-f20a15443200",
				"b3206b8c-7faa-44cd-b51a-a8c213e45a65"
			],
			"folders_order": [],
			"protocolProfileBehavior": {}
		},
		{
			"id": "815eabc6-12e1-477e-bbdf-a63fb4eddde7",
			"name": "Repartidor",
			"description": null,
			"auth": null,
			"events": null,
			"collection": "bb4b6b76-aefc-49ee-8abb-e87bb13aa7e4",
			"folder": null,
			"order": [
				"479af647-012f-46d4-879f-ee6c4cb183b3"
			],
			"folders_order": [],
			"protocolProfileBehavior": {}
		},
		{
			"id": "cb26172b-5b71-4cc5-8bca-d5ee09b0c913",
			"name": "User",
			"description": null,
			"auth": null,
			"events": null,
			"collection": "bb4b6b76-aefc-49ee-8abb-e87bb13aa7e4",
			"folder": null,
			"order": [
				"cd4ded10-c67d-49f4-b934-598c63d4493b"
			],
			"folders_order": [],
			"protocolProfileBehavior": {}
		}
	],
	"requests": [
		{
			"id": "093bbcb8-fec9-475a-be0e-791a1e12628a",
			"name": "Listar Categorias",
			"url": "{{url-lubo-go}}establishment/listCategories",
			"description": null,
			"data": null,
			"dataOptions": null,
			"dataMode": null,
			"headerData": [
				{
					"key": "Content-Type",
					"value": "application/json",
					"type": "text"
				},
				{
					"key": "auth-token",
					"value": "eyJ0eXAiOiJKV1QiLCJhbGciOiJIUzI1NiJ9.eyJleHAiOjE2NTMzNDMyMzUsImF1ZCI6IjcwN2NlMDIwMThlN2EzZWQyNThhOTY2NTcyYmRmMjM4YTAxNThkMDAiLCJkYXRhIjp7ImlkVXN1YXJpbyI6IjQiLCJub21icmUiOiJIdW1iZXJ0IiwiYXBlbGxpZG9zIjoiQ3VhdXRlbmNvIiwiZW1haWwiOiJodW1iZXJ0QHN0YXJkdXN0LmNvbS5teCIsInNleG8iOiJIIiwidXJsUGhvdG8iOm51bGwsInRlbGVmb25vIjoiNzc2MTA1MjIxMyJ9fQ.F-8WqbfFRsGF7slzN0ixcM_77B3VNAXOhZEMMra7dSg",
					"type": "text"
				}
			],
			"method": "GET",
			"pathVariableData": [],
			"queryParams": [],
			"auth": null,
			"events": null,
			"folder": "f73fc0d7-9a50-4739-ad46-e0f90072f508",
			"responses": [
				{
					"id": "82400f60-a1b3-4116-bd4d-050b4a55924c",
					"name": "Listar Categorias",
					"status": "OK",
					"mime": "",
					"language": "json",
					"text": "{\n    \"result\": [\n        {\n            \"idTipoEstablecimiento\": \"7\",\n            \"descripcion\": \"Comida\",\n            \"urlImagen\": null\n        }\n    ],\n    \"response\": true,\n    \"message\": \"\",\n    \"errors\": \"\"\n}",
					"responseCode": {
						"code": 200,
						"name": "OK",
						"detail": ""
					},
					"requestObject": {
						"id": "7a288546-e36c-4952-bc08-38f76388cb84",
						"method": "GET",
						"headers": "Content-Type: application/json\nauth-token: eyJ0eXAiOiJKV1QiLCJhbGciOiJIUzI1NiJ9.eyJleHAiOjE2NTMzNDMyMzUsImF1ZCI6IjcwN2NlMDIwMThlN2EzZWQyNThhOTY2NTcyYmRmMjM4YTAxNThkMDAiLCJkYXRhIjp7ImlkVXN1YXJpbyI6IjQiLCJub21icmUiOiJIdW1iZXJ0IiwiYXBlbGxpZG9zIjoiQ3VhdXRlbmNvIiwiZW1haWwiOiJodW1iZXJ0QHN0YXJkdXN0LmNvbS5teCIsInNleG8iOiJIIiwidXJsUGhvdG8iOm51bGwsInRlbGVmb25vIjoiNzc2MTA1MjIxMyJ9fQ.F-8WqbfFRsGF7slzN0ixcM_77B3VNAXOhZEMMra7dSg",
						"url": "{{url-lubo-go}}establishment/listCategories",
						"pathVariableData": [],
						"queryParams": [],
						"headerData": [
							{
								"key": "Content-Type",
								"value": "application/json",
								"type": "text"
							},
							{
								"key": "auth-token",
								"value": "eyJ0eXAiOiJKV1QiLCJhbGciOiJIUzI1NiJ9.eyJleHAiOjE2NTMzNDMyMzUsImF1ZCI6IjcwN2NlMDIwMThlN2EzZWQyNThhOTY2NTcyYmRmMjM4YTAxNThkMDAiLCJkYXRhIjp7ImlkVXN1YXJpbyI6IjQiLCJub21icmUiOiJIdW1iZXJ0IiwiYXBlbGxpZG9zIjoiQ3VhdXRlbmNvIiwiZW1haWwiOiJodW1iZXJ0QHN0YXJkdXN0LmNvbS5teCIsInNleG8iOiJIIiwidXJsUGhvdG8iOm51bGwsInRlbGVmb25vIjoiNzc2MTA1MjIxMyJ9fQ.F-8WqbfFRsGF7slzN0ixcM_77B3VNAXOhZEMMra7dSg",
								"type": "text"
							}
						],
						"dataMode": null,
						"data": null
					},
					"headers": [
						{
							"key": "Date",
							"value": "Tue, 02 Jun 2020 22:01:58 GMT"
						},
						{
							"key": "Server",
							"value": "Apache/2.4.41 (Ubuntu)"
						},
						{
							"key": "Access-Control-Allow-Origin",
							"value": "*"
						},
						{
							"key": "Access-Control-Allow-Methods",
							"value": "GET, POST, PUT, DELETE"
						},
						{
							"key": "Content-Length",
							"value": "124"
						},
						{
							"key": "Keep-Alive",
							"value": "timeout=5, max=100"
						},
						{
							"key": "Connection",
							"value": "Keep-Alive"
						},
						{
							"key": "Content-Type",
							"value": "application/json"
						}
					],
					"cookies": [],
					"request": "093bbcb8-fec9-475a-be0e-791a1e12628a",
					"collection": "bb4b6b76-aefc-49ee-8abb-e87bb13aa7e4"
				}
			],
			"headers": "Content-Type: application/json\nauth-token: eyJ0eXAiOiJKV1QiLCJhbGciOiJIUzI1NiJ9.eyJleHAiOjE2NTMzNDMyMzUsImF1ZCI6IjcwN2NlMDIwMThlN2EzZWQyNThhOTY2NTcyYmRmMjM4YTAxNThkMDAiLCJkYXRhIjp7ImlkVXN1YXJpbyI6IjQiLCJub21icmUiOiJIdW1iZXJ0IiwiYXBlbGxpZG9zIjoiQ3VhdXRlbmNvIiwiZW1haWwiOiJodW1iZXJ0QHN0YXJkdXN0LmNvbS5teCIsInNleG8iOiJIIiwidXJsUGhvdG8iOm51bGwsInRlbGVmb25vIjoiNzc2MTA1MjIxMyJ9fQ.F-8WqbfFRsGF7slzN0ixcM_77B3VNAXOhZEMMra7dSg\n",
			"pathVariables": {}
		},
		{
			"id": "2200002a-12e6-4ee4-87a0-e6f66b77676e",
			"name": "validateCodeEmail/idUsuario",
			"url": "{{url-lubo-go}}auth/validateCodeEmail/1",
			"description": null,
			"data": [],
			"dataOptions": {
				"raw": {
					"language": "json"
				}
			},
			"dataMode": "raw",
			"headerData": [],
			"method": "POST",
			"pathVariableData": [],
			"queryParams": [],
			"auth": null,
			"events": null,
			"folder": "c85d4938-b5b7-432e-9446-95bdcc16d98f",
			"rawModeData": "{\n\t\"Codigo\":\"E6TsZM\"\n}",
			"headers": "",
			"pathVariables": {}
		},
		{
			"id": "32e6d95b-df06-4e10-a8a3-e5743d6231cf",
			"name": "GetData",
			"url": "{{url-lubo-go}}auth/getData/eyJ0eXAiOiJKV1QiLCJhbGciOiJIUzI1NiJ9.eyJleHAiOjE2NTI5Mzc2ODgsImF1ZCI6IjcwN2NlMDIwMThlN2EzZWQyNThhOTY2NTcyYmRmMjM4YTAxNThkMDAiLCJkYXRhIjp7ImlkVXN1YXJpbyI6IjEiLCJub21icmUiOiJIdW1iZXJ0IiwiYXBlbGxpZG9zIjoiQ3VhdXRlbmNvIiwiZW1haWwiOiJodW1iZXJ0QHN0YXJkdXN0LmNvbS5teCIsInNleG8iOiJIIiwidXJsUGhvdG8iOm51bGwsInRlbGVmb25vIjoiNzc2MTA1MjIxMCJ9fQ.IISHBoT2vPcHYfkj6Y1NsCW45lgoYv-6I452HiIUiDA",
			"description": null,
			"data": null,
			"dataOptions": null,
			"dataMode": null,
			"headerData": [
				{
					"key": "Content-Type",
					"value": "application/json",
					"type": "text"
				}
			],
			"method": "GET",
			"pathVariableData": [],
			"queryParams": [],
			"auth": null,
			"events": null,
			"folder": "f73fc0d7-9a50-4739-ad46-e0f90072f508",
			"responses": [
				{
					"id": "7b67d6ef-810d-452a-8f36-cb00da975223",
					"name": "GetData",
					"status": "OK",
					"mime": "",
					"language": "json",
					"text": "{\n    \"result\": {\n        \"idUsuario\": \"1\",\n        \"nombre\": \"Humbert\",\n        \"apellidos\": \"Cuautenco\",\n        \"email\": \"humbert@stardust.com.mx\",\n        \"sexo\": \"H\",\n        \"urlPhoto\": null,\n        \"telefono\": \"7761052210\"\n    },\n    \"response\": true,\n    \"message\": \"\",\n    \"errors\": \"\"\n}",
					"responseCode": {
						"code": 200,
						"name": "OK",
						"detail": ""
					},
					"requestObject": {
						"id": "1d75334d-13b7-40b0-94ea-be94b2e5c3aa",
						"method": "GET",
						"headers": "Content-Type: application/json",
						"url": "{{url-lubo-go}}auth/getData/eyJ0eXAiOiJKV1QiLCJhbGciOiJIUzI1NiJ9.eyJleHAiOjE2NTI5Mzc2ODgsImF1ZCI6IjcwN2NlMDIwMThlN2EzZWQyNThhOTY2NTcyYmRmMjM4YTAxNThkMDAiLCJkYXRhIjp7ImlkVXN1YXJpbyI6IjEiLCJub21icmUiOiJIdW1iZXJ0IiwiYXBlbGxpZG9zIjoiQ3VhdXRlbmNvIiwiZW1haWwiOiJodW1iZXJ0QHN0YXJkdXN0LmNvbS5teCIsInNleG8iOiJIIiwidXJsUGhvdG8iOm51bGwsInRlbGVmb25vIjoiNzc2MTA1MjIxMCJ9fQ.IISHBoT2vPcHYfkj6Y1NsCW45lgoYv-6I452HiIUiDA",
						"pathVariableData": [],
						"queryParams": [],
						"headerData": [
							{
								"key": "Content-Type",
								"value": "application/json",
								"type": "text"
							}
						],
						"dataMode": null,
						"data": null
					},
					"headers": [
						{
							"key": "Date",
							"value": "Sat, 30 May 2020 02:39:14 GMT"
						},
						{
							"key": "Server",
							"value": "Apache"
						},
						{
							"key": "X-Powered-By",
							"value": "PHP/7.4.5"
						},
						{
							"key": "Access-Control-Allow-Origin",
							"value": "*"
						},
						{
							"key": "Access-Control-Allow-Methods",
							"value": "GET, POST, PUT, DELETE"
						},
						{
							"key": "Upgrade",
							"value": "h2,h2c"
						},
						{
							"key": "Connection",
							"value": "Upgrade, Keep-Alive"
						},
						{
							"key": "Vary",
							"value": "Accept-Encoding,User-Agent"
						},
						{
							"key": "Content-Encoding",
							"value": "gzip"
						},
						{
							"key": "Content-Length",
							"value": "170"
						},
						{
							"key": "Keep-Alive",
							"value": "timeout=5"
						},
						{
							"key": "Content-Type",
							"value": "application/json"
						}
					],
					"cookies": [],
					"request": "32e6d95b-df06-4e10-a8a3-e5743d6231cf",
					"collection": "bb4b6b76-aefc-49ee-8abb-e87bb13aa7e4"
				}
			],
			"headers": "Content-Type: application/json\n",
			"pathVariables": {}
		},
		{
			"id": "37b4d028-6737-4cc4-b0bb-0b52db3d8f51",
			"name": "SendCodeToEmail/idUsuario",
			"url": "{{url-lubo-go}}auth/sendCodeToEmail/1",
			"description": null,
			"data": [],
			"dataOptions": {
				"raw": {
					"language": "json"
				}
			},
			"dataMode": "raw",
			"headerData": [],
			"method": "POST",
			"pathVariableData": [],
			"queryParams": [],
			"auth": null,
			"events": null,
			"folder": "c85d4938-b5b7-432e-9446-95bdcc16d98f",
			"rawModeData": "{\n\t\"Email\":\"jazciel@stardust.com.mx\",\n\t\"TipoUsuario\":\"1\"\n}",
			"headers": "",
			"pathVariables": {}
		},
		{
			"id": "479af647-012f-46d4-879f-ee6c4cb183b3",
			"name": "LoginDealer",
			"url": "{{url-lubo-go}}auth/loginDealer",
			"description": null,
			"data": [],
			"dataOptions": {
				"raw": {
					"language": "json"
				}
			},
			"dataMode": "raw",
			"headerData": [
				{
					"key": "Content-Type",
					"value": "application/json",
					"type": "text"
				}
			],
			"method": "POST",
			"pathVariableData": [],
			"queryParams": [
				{
					"key": "",
					"value": null,
					"enabled": false
				}
			],
			"auth": null,
			"events": null,
			"folder": "815eabc6-12e1-477e-bbdf-a63fb4eddde7",
			"responses": [
				{
					"id": "a08e92f2-8085-4ad7-aa53-30bcd101dfc7",
					"name": "LoginDealer",
					"status": "OK",
					"mime": "",
					"language": "json",
					"text": "{\n    \"result\": {\n        \"token\": \"eyJ0eXAiOiJKV1QiLCJhbGciOiJIUzI1NiJ9.eyJleHAiOjE2NTMwMDA0MDUsImF1ZCI6ImU4OGU1ZjFmNjUzYTFiZTYyNDkwYjI2M2U3MmM5Y2E2OTJlNTNkNjgiLCJkYXRhIjp7ImlkVXN1YXJpbyI6IjMiLCJub21icmUiOiJIdW1iZXJ0IiwiYXBlbGxpZG9zIjoiQ3VhdXRlbmNvIiwiZW1haWwiOiJodW1iZXJ0QHN0YXJkdXN0LmNvbS5teCIsInNleG8iOiJIIiwidXJsUGhvdG8iOm51bGwsInRlbGVmb25vIjoiNzc2MTA1MjIxMyJ9fQ.LYmzeCs-Fxxb1U0nsLRNUZjxcjr_U59fOht69P3OkqI\",\n        \"id\": \"3\"\n    },\n    \"response\": true,\n    \"message\": \"\",\n    \"errors\": \"\"\n}",
					"responseCode": {
						"code": 200,
						"name": "OK",
						"detail": ""
					},
					"requestObject": {
						"id": "ef3f0802-4033-437a-93ee-9f1f824c0fd1",
						"method": "POST",
						"headers": "Content-Type: application/json",
						"dataMode": "raw",
						"url": "{{url-lubo-go}}auth/loginDealer",
						"dataOptions": {
							"raw": {
								"language": "json"
							}
						},
						"pathVariableData": [],
						"queryParams": [
							{
								"key": "",
								"value": null,
								"enabled": false
							}
						],
						"headerData": [
							{
								"key": "Content-Type",
								"value": "application/json",
								"type": "text"
							}
						],
						"data": [],
						"rawModeData": "{\n    \"user\": \"humbert@stardust.com.mx\",\n    \"password\": \"123456\",\n    \"token\": \"asdasdasasd56454asd4as56d4a6sd46as4d564as6d54a56sd46asd64asd548da9s8da9sd789f9qqw8w79qw8\",\n    \"plataforma\": \"web\"\n}"
					},
					"headers": [
						{
							"key": "Date",
							"value": "Fri, 29 May 2020 22:46:45 GMT"
						},
						{
							"key": "Server",
							"value": "Apache"
						},
						{
							"key": "X-Powered-By",
							"value": "PHP/7.4.5"
						},
						{
							"key": "Access-Control-Allow-Origin",
							"value": "*"
						},
						{
							"key": "Access-Control-Allow-Methods",
							"value": "GET, POST, PUT, DELETE"
						},
						{
							"key": "Upgrade",
							"value": "h2,h2c"
						},
						{
							"key": "Connection",
							"value": "Upgrade, Keep-Alive"
						},
						{
							"key": "Vary",
							"value": "Accept-Encoding,User-Agent"
						},
						{
							"key": "Content-Encoding",
							"value": "gzip"
						},
						{
							"key": "Content-Length",
							"value": "375"
						},
						{
							"key": "Keep-Alive",
							"value": "timeout=5"
						},
						{
							"key": "Content-Type",
							"value": "application/json"
						}
					],
					"cookies": [],
					"request": "479af647-012f-46d4-879f-ee6c4cb183b3",
					"collection": "bb4b6b76-aefc-49ee-8abb-e87bb13aa7e4"
				}
			],
			"rawModeData": "{\n    \"user\": \"humbert@stardust.com.mx\",\n    \"password\": \"123456\",\n    \"token\": \"asdasdasasd56454asd4as56d4a6sd46as4d564as6d54a56sd46asd64asd548da9s8da9sd789f9qqw8w79qw8\",\n    \"plataforma\": \"web\"\n}",
			"headers": "Content-Type: application/json\n",
			"pathVariables": {}
		},
		{
			"id": "52584b85-881a-4289-ad5d-7b1bd8461439",
			"name": "Obtener Direccion",
			"url": "{{url-lubo-go}}address/obtain/1",
			"description": null,
			"data": null,
			"dataOptions": null,
			"dataMode": null,
			"headerData": [
				{
					"key": "Content-Type",
					"value": "application/json",
					"type": "text"
				},
				{
					"key": "auth-token",
					"value": "eyJ0eXAiOiJKV1QiLCJhbGciOiJIUzI1NiJ9.eyJleHAiOjE2NTM1MjQwMzMsImF1ZCI6IjcwN2NlMDIwMThlN2EzZWQyNThhOTY2NTcyYmRmMjM4YTAxNThkMDAiLCJkYXRhIjp7ImlkVXN1YXJpbyI6IjIiLCJub21icmUiOiJIdW1iZXJ0IiwiYXBlbGxpZG9zIjoiQ3VhdXRlbmNvIiwiZW1haWwiOiJodW1iZXJ0QHN0YXJkdXN0LmNvbS5teCIsInNleG8iOiJIIiwidXJsUGhvdG8iOm51bGwsInRlbGVmb25vIjoiNzc2MTA1MjIxMyJ9fQ.0iJ2BMd0M09Kwj5GLf9pdr8ChgFw2GnSu1nB96FQN1Y",
					"type": "text"
				}
			],
			"method": "GET",
			"pathVariableData": [],
			"queryParams": [],
			"auth": null,
			"events": null,
			"folder": "81d2a7f5-404f-4ab8-aea0-f117cb6cee3f",
			"responses": [
				{
					"id": "0ea576e4-798b-4f19-b272-677453d2223d",
					"name": "Obtener Direccion",
					"status": "OK",
					"mime": "",
					"language": "json",
					"text": "{\n    \"result\": {\n        \"idDireccion\": \"1\",\n        \"Calle\": \"Benito Jurez\",\n        \"numeroExterior\": \"19\",\n        \"numeroInterior\": \"\",\n        \"Colonia\": \"Patoltecoya\",\n        \"Municipio\": \"Huauchinango\",\n        \"Ciudad\": \"Huauchinango\",\n        \"Latitud\": \"20.209043\",\n        \"Longitud\": \"-98.033196\",\n        \"Estado\": \"Puebla\",\n        \"CodPostal\": \"73165\",\n        \"Guardado\": \"1\",\n        \"idEstablecimiento\": null,\n        \"idUsuario\": \"3\",\n        \"status\": \"1\"\n    },\n    \"response\": true,\n    \"message\": \"\",\n    \"errors\": \"\"\n}",
					"responseCode": {
						"code": 200,
						"name": "OK",
						"detail": ""
					},
					"requestObject": {
						"id": "2a764de5-4480-4349-be72-7d33eb876569",
						"method": "GET",
						"headers": "Content-Type: application/json\nauth-token: eyJ0eXAiOiJKV1QiLCJhbGciOiJIUzI1NiJ9.eyJleHAiOjE2NTM1MjQwMzMsImF1ZCI6IjcwN2NlMDIwMThlN2EzZWQyNThhOTY2NTcyYmRmMjM4YTAxNThkMDAiLCJkYXRhIjp7ImlkVXN1YXJpbyI6IjIiLCJub21icmUiOiJIdW1iZXJ0IiwiYXBlbGxpZG9zIjoiQ3VhdXRlbmNvIiwiZW1haWwiOiJodW1iZXJ0QHN0YXJkdXN0LmNvbS5teCIsInNleG8iOiJIIiwidXJsUGhvdG8iOm51bGwsInRlbGVmb25vIjoiNzc2MTA1MjIxMyJ9fQ.0iJ2BMd0M09Kwj5GLf9pdr8ChgFw2GnSu1nB96FQN1Y",
						"url": "{{url-lubo-go}}address/obtain/1",
						"pathVariableData": [],
						"queryParams": [],
						"headerData": [
							{
								"key": "Content-Type",
								"value": "application/json",
								"type": "text"
							},
							{
								"key": "auth-token",
								"value": "eyJ0eXAiOiJKV1QiLCJhbGciOiJIUzI1NiJ9.eyJleHAiOjE2NTM1MjQwMzMsImF1ZCI6IjcwN2NlMDIwMThlN2EzZWQyNThhOTY2NTcyYmRmMjM4YTAxNThkMDAiLCJkYXRhIjp7ImlkVXN1YXJpbyI6IjIiLCJub21icmUiOiJIdW1iZXJ0IiwiYXBlbGxpZG9zIjoiQ3VhdXRlbmNvIiwiZW1haWwiOiJodW1iZXJ0QHN0YXJkdXN0LmNvbS5teCIsInNleG8iOiJIIiwidXJsUGhvdG8iOm51bGwsInRlbGVmb25vIjoiNzc2MTA1MjIxMyJ9fQ.0iJ2BMd0M09Kwj5GLf9pdr8ChgFw2GnSu1nB96FQN1Y",
								"type": "text"
							}
						],
						"dataMode": null,
						"data": null
					},
					"headers": [
						{
							"key": "Date",
							"value": "Fri, 05 Jun 2020 03:05:23 GMT"
						},
						{
							"key": "Server",
							"value": "Apache/2.4.41 (Ubuntu)"
						},
						{
							"key": "Access-Control-Allow-Origin",
							"value": "*"
						},
						{
							"key": "Access-Control-Allow-Methods",
							"value": "GET, POST, PUT, DELETE"
						},
						{
							"key": "Content-Length",
							"value": "365"
						},
						{
							"key": "Keep-Alive",
							"value": "timeout=5, max=100"
						},
						{
							"key": "Connection",
							"value": "Keep-Alive"
						},
						{
							"key": "Content-Type",
							"value": "application/json"
						}
					],
					"cookies": [],
					"request": "52584b85-881a-4289-ad5d-7b1bd8461439",
					"collection": "bb4b6b76-aefc-49ee-8abb-e87bb13aa7e4"
				}
			],
			"headers": "Content-Type: application/json\nauth-token: eyJ0eXAiOiJKV1QiLCJhbGciOiJIUzI1NiJ9.eyJleHAiOjE2NTM1MjQwMzMsImF1ZCI6IjcwN2NlMDIwMThlN2EzZWQyNThhOTY2NTcyYmRmMjM4YTAxNThkMDAiLCJkYXRhIjp7ImlkVXN1YXJpbyI6IjIiLCJub21icmUiOiJIdW1iZXJ0IiwiYXBlbGxpZG9zIjoiQ3VhdXRlbmNvIiwiZW1haWwiOiJodW1iZXJ0QHN0YXJkdXN0LmNvbS5teCIsInNleG8iOiJIIiwidXJsUGhvdG8iOm51bGwsInRlbGVmb25vIjoiNzc2MTA1MjIxMyJ9fQ.0iJ2BMd0M09Kwj5GLf9pdr8ChgFw2GnSu1nB96FQN1Y\n",
			"pathVariables": {}
		},
		{
			"id": "583ea586-c4eb-4f20-ad90-182a711e15dd",
			"name": "Listar por categorias",
			"url": "{{url-lubo-go}}establishment/toListForCategories/7",
			"description": "parametro de id Categoria",
			"data": null,
			"dataOptions": null,
			"dataMode": null,
			"headerData": [
				{
					"key": "Content-Type",
					"value": "application/json",
					"type": "text"
				},
				{
					"key": "auth-token",
					"value": "eyJ0eXAiOiJKV1QiLCJhbGciOiJIUzI1NiJ9.eyJleHAiOjE2NTM5NDA0OTMsImF1ZCI6IjcwN2NlMDIwMThlN2EzZWQyNThhOTY2NTcyYmRmMjM4YTAxNThkMDAiLCJkYXRhIjp7ImlkVXN1YXJpbyI6IjIiLCJub21icmUiOiJIdW1iZXJ0IiwiYXBlbGxpZG9zIjoiQ3VhdXRlbmNvIiwiZW1haWwiOiJodW1iZXJ0QHN0YXJkdXN0LmNvbS5teCIsInNleG8iOiJIIiwidXJsUGhvdG8iOm51bGwsInRlbGVmb25vIjoiNzc2MTA1MjIxMyJ9fQ.kVC662_LYqYa9s-FXt0UsbwNsN5jp64Cy4MwjdTMhhA",
					"type": "text"
				}
			],
			"method": "GET",
			"pathVariableData": [],
			"queryParams": [],
			"auth": null,
			"events": null,
			"folder": "fc099b37-da05-4e4b-bfc0-5a618439e0bf",
			"responses": [
				{
					"id": "159e9c0a-0fb8-433c-94ff-cfcaaca0d8f9",
					"name": "Listar por categorias",
					"status": "OK",
					"mime": "",
					"language": "json",
					"text": "{\n    \"result\": [\n        {\n            \"idEstablecimiento\": \"4\",\n            \"nombre\": \"tres gatos\",\n            \"urlFoto\": null,\n            \"email\": \"tres_gatos@gmail.com\",\n            \"telefono\": \"7761052213\",\n            \"idTipoEstablecimiento\": \"7\",\n            \"idStatusEstablecimiento\": \"1\",\n            \"etiquetas\": \"tacos,tres,gatos,los tres gatos\",\n            \"calificacion\": \"5\",\n            \"idAdministrador\": \"4\"\n        },\n        {\n            \"idEstablecimiento\": \"5\",\n            \"nombre\": \"Cafe pahuatlan\",\n            \"urlFoto\": null,\n            \"email\": \"cafe@gmail.com\",\n            \"telefono\": \"7761052215\",\n            \"idTipoEstablecimiento\": \"7\",\n            \"idStatusEstablecimiento\": \"1\",\n            \"etiquetas\": \"cafe,pahuatlan,te,cafe pahuatlan\",\n            \"calificacion\": \"5\",\n            \"idAdministrador\": \"6\"\n        },\n        {\n            \"idEstablecimiento\": \"6\",\n            \"nombre\": \"pizza Napoli\",\n            \"urlFoto\": null,\n            \"email\": \"pizza_napoli@gmail.com\",\n            \"telefono\": \"7761052289\",\n            \"idTipoEstablecimiento\": \"7\",\n            \"idStatusEstablecimiento\": \"1\",\n            \"etiquetas\": \"pizza,napoli,pizza napoli, italiana, comida italiana\",\n            \"calificacion\": \"5\",\n            \"idAdministrador\": \"5\"\n        }\n    ],\n    \"response\": true,\n    \"message\": \"\",\n    \"errors\": \"\"\n}",
					"responseCode": {
						"code": 200,
						"name": "OK",
						"detail": ""
					},
					"requestObject": {
						"id": "05bea1af-5ea1-42a7-9822-60a191b2b9c5",
						"method": "GET",
						"headers": "Content-Type: application/json\nauth-token: eyJ0eXAiOiJKV1QiLCJhbGciOiJIUzI1NiJ9.eyJleHAiOjE2NTM5NDA0OTMsImF1ZCI6IjcwN2NlMDIwMThlN2EzZWQyNThhOTY2NTcyYmRmMjM4YTAxNThkMDAiLCJkYXRhIjp7ImlkVXN1YXJpbyI6IjIiLCJub21icmUiOiJIdW1iZXJ0IiwiYXBlbGxpZG9zIjoiQ3VhdXRlbmNvIiwiZW1haWwiOiJodW1iZXJ0QHN0YXJkdXN0LmNvbS5teCIsInNleG8iOiJIIiwidXJsUGhvdG8iOm51bGwsInRlbGVmb25vIjoiNzc2MTA1MjIxMyJ9fQ.kVC662_LYqYa9s-FXt0UsbwNsN5jp64Cy4MwjdTMhhA",
						"url": "{{url-lubo-go}}establishment/toListForCategories/7",
						"pathVariableData": [],
						"queryParams": [],
						"headerData": [
							{
								"key": "Content-Type",
								"value": "application/json",
								"type": "text"
							},
							{
								"key": "auth-token",
								"value": "eyJ0eXAiOiJKV1QiLCJhbGciOiJIUzI1NiJ9.eyJleHAiOjE2NTM5NDA0OTMsImF1ZCI6IjcwN2NlMDIwMThlN2EzZWQyNThhOTY2NTcyYmRmMjM4YTAxNThkMDAiLCJkYXRhIjp7ImlkVXN1YXJpbyI6IjIiLCJub21icmUiOiJIdW1iZXJ0IiwiYXBlbGxpZG9zIjoiQ3VhdXRlbmNvIiwiZW1haWwiOiJodW1iZXJ0QHN0YXJkdXN0LmNvbS5teCIsInNleG8iOiJIIiwidXJsUGhvdG8iOm51bGwsInRlbGVmb25vIjoiNzc2MTA1MjIxMyJ9fQ.kVC662_LYqYa9s-FXt0UsbwNsN5jp64Cy4MwjdTMhhA",
								"type": "text"
							}
						],
						"dataMode": null,
						"data": null
					},
					"headers": [
						{
							"key": "Date",
							"value": "Tue, 09 Jun 2020 19:56:54 GMT"
						},
						{
							"key": "Server",
							"value": "Apache/2.4.41 (Ubuntu)"
						},
						{
							"key": "Access-Control-Allow-Origin",
							"value": "*"
						},
						{
							"key": "Access-Control-Allow-Methods",
							"value": "GET, POST, PUT, DELETE"
						},
						{
							"key": "Content-Length",
							"value": "867"
						},
						{
							"key": "Keep-Alive",
							"value": "timeout=5, max=100"
						},
						{
							"key": "Connection",
							"value": "Keep-Alive"
						},
						{
							"key": "Content-Type",
							"value": "application/json"
						}
					],
					"cookies": [],
					"request": "583ea586-c4eb-4f20-ad90-182a711e15dd",
					"collection": "bb4b6b76-aefc-49ee-8abb-e87bb13aa7e4"
				}
			],
			"headers": "Content-Type: application/json\nauth-token: eyJ0eXAiOiJKV1QiLCJhbGciOiJIUzI1NiJ9.eyJleHAiOjE2NTM5NDA0OTMsImF1ZCI6IjcwN2NlMDIwMThlN2EzZWQyNThhOTY2NTcyYmRmMjM4YTAxNThkMDAiLCJkYXRhIjp7ImlkVXN1YXJpbyI6IjIiLCJub21icmUiOiJIdW1iZXJ0IiwiYXBlbGxpZG9zIjoiQ3VhdXRlbmNvIiwiZW1haWwiOiJodW1iZXJ0QHN0YXJkdXN0LmNvbS5teCIsInNleG8iOiJIIiwidXJsUGhvdG8iOm51bGwsInRlbGVmb25vIjoiNzc2MTA1MjIxMyJ9fQ.kVC662_LYqYa9s-FXt0UsbwNsN5jp64Cy4MwjdTMhhA\n",
			"pathVariables": {}
		},
		{
			"id": "5b04db96-0ae2-4286-98c2-f20a15443200",
			"name": "ValidarCodigo",
			"url": "{{url-lubo-go}}auth/validateCode",
			"description": null,
			"data": [],
			"dataOptions": {
				"raw": {
					"language": "json"
				}
			},
			"dataMode": "raw",
			"headerData": [
				{
					"key": "Content-Type",
					"type": "text",
					"value": "application/json"
				}
			],
			"method": "POST",
			"pathVariableData": [],
			"queryParams": [
				{
					"key": "",
					"value": null,
					"enabled": false
				}
			],
			"auth": null,
			"events": null,
			"folder": "31e2c8f9-3f91-40e9-8d33-bac1529e4ec4",
			"responses": [
				{
					"id": "68fbc6a8-a746-404d-b60d-8a38d053119e",
					"name": "ValidarCodigo",
					"status": "OK",
					"mime": "",
					"language": "json",
					"text": "{\n    \"result\": \"eyJ0eXAiOiJKV1QiLCJhbGciOiJIUzI1NiJ9.eyJleHAiOjE1OTA3OTU3MTIsImF1ZCI6ImU4OGU1ZjFmNjUzYTFiZTYyNDkwYjI2M2U3MmM5Y2E2OTJlNTNkNjgiLCJkYXRhIjp7InRva2VuUmVnaXRybyI6IjA0MDAifX0.skh4tnKrkoqGucfD5GQZu_foS76mzJ9CQw6g6EW-q54\",\n    \"response\": true,\n    \"message\": \"Código de verificación correcto.\",\n    \"errors\": \"\"\n}",
					"responseCode": {
						"code": 200,
						"name": "OK",
						"detail": ""
					},
					"requestObject": {
						"id": "368873c4-9f7f-4c65-91f0-c451d73b6a7f",
						"method": "POST",
						"headers": "Content-Type: application/json",
						"dataMode": "raw",
						"url": "{{url-lubo-go}}auth/validateCode",
						"dataOptions": {
							"raw": {
								"language": "json"
							}
						},
						"pathVariableData": [],
						"queryParams": [
							{
								"key": "",
								"value": null,
								"enabled": false
							}
						],
						"headerData": [
							{
								"key": "Content-Type",
								"type": "text",
								"value": "application/json"
							}
						],
						"data": [],
						"rawModeData": "{\n\t\"codigoPais\":\"52\",\n\t\"telefono\":\"7761052213\",\n\t\"codigo\":\"0400\"\n}"
					},
					"headers": [
						{
							"key": "Date",
							"value": "Fri, 29 May 2020 22:41:52 GMT"
						},
						{
							"key": "Server",
							"value": "Apache"
						},
						{
							"key": "X-Powered-By",
							"value": "PHP/7.4.5"
						},
						{
							"key": "Access-Control-Allow-Origin",
							"value": "*"
						},
						{
							"key": "Access-Control-Allow-Methods",
							"value": "GET, POST, PUT, DELETE"
						},
						{
							"key": "Upgrade",
							"value": "h2,h2c"
						},
						{
							"key": "Connection",
							"value": "Upgrade, Keep-Alive"
						},
						{
							"key": "Vary",
							"value": "Accept-Encoding,User-Agent"
						},
						{
							"key": "Content-Encoding",
							"value": "gzip"
						},
						{
							"key": "Content-Length",
							"value": "283"
						},
						{
							"key": "Keep-Alive",
							"value": "timeout=5"
						},
						{
							"key": "Content-Type",
							"value": "application/json"
						}
					],
					"cookies": [],
					"request": "5b04db96-0ae2-4286-98c2-f20a15443200",
					"collection": "bb4b6b76-aefc-49ee-8abb-e87bb13aa7e4"
				}
			],
			"rawModeData": "{\n\t\"codigoPais\":\"52\",\n\t\"telefono\":\"7761052213\",\n\t\"codigo\":\"0400\"\n}",
			"headers": "Content-Type: application/json\n",
			"pathVariables": {}
		},
		{
			"id": "60bf2102-72b1-44d9-b746-fca8a5ca9b0a",
			"name": "Listar Direcciones",
			"url": "{{url-lubo-go}}address/toList/idUsuario/3",
			"description": "el primer parametro es idUsuario o idEstablecimiento segun las direcciones que se quieran listar el segundo es el id del usuario o establecimiento",
			"data": null,
			"dataOptions": null,
			"dataMode": null,
			"headerData": [
				{
					"key": "Content-Type",
					"value": "application/json",
					"type": "text"
				},
				{
					"key": "auth-token",
					"value": "eyJ0eXAiOiJKV1QiLCJhbGciOiJIUzI1NiJ9.eyJleHAiOjE2NTM1MjQwMzMsImF1ZCI6IjcwN2NlMDIwMThlN2EzZWQyNThhOTY2NTcyYmRmMjM4YTAxNThkMDAiLCJkYXRhIjp7ImlkVXN1YXJpbyI6IjIiLCJub21icmUiOiJIdW1iZXJ0IiwiYXBlbGxpZG9zIjoiQ3VhdXRlbmNvIiwiZW1haWwiOiJodW1iZXJ0QHN0YXJkdXN0LmNvbS5teCIsInNleG8iOiJIIiwidXJsUGhvdG8iOm51bGwsInRlbGVmb25vIjoiNzc2MTA1MjIxMyJ9fQ.0iJ2BMd0M09Kwj5GLf9pdr8ChgFw2GnSu1nB96FQN1Y",
					"type": "text"
				}
			],
			"method": "GET",
			"pathVariableData": [],
			"queryParams": [
				{
					"key": "auth-token",
					"value": "eyJ0eXAiOiJKV1QiLCJhbGciOiJIUzI1NiJ9.eyJleHAiOjE2NTM1MjQwMzMsImF1ZCI6IjcwN2NlMDIwMThlN2EzZWQyNThhOTY2NTcyYmRmMjM4YTAxNThkMDAiLCJkYXRhIjp7ImlkVXN1YXJpbyI6IjIiLCJub21icmUiOiJIdW1iZXJ0IiwiYXBlbGxpZG9zIjoiQ3VhdXRlbmNvIiwiZW1haWwiOiJodW1iZXJ0QHN0YXJkdXN0LmNvbS5teCIsInNleG8iOiJIIiwidXJsUGhvdG8iOm51bGwsInRlbGVmb25vIjoiNzc2MTA1MjIxMyJ9fQ.0iJ2BMd0M09Kwj5GLf9pdr8ChgFw2GnSu1nB96FQN1Y",
					"enabled": false
				}
			],
			"auth": null,
			"events": null,
			"folder": "81d2a7f5-404f-4ab8-aea0-f117cb6cee3f",
			"headers": "Content-Type: application/json\nauth-token: eyJ0eXAiOiJKV1QiLCJhbGciOiJIUzI1NiJ9.eyJleHAiOjE2NTM1MjQwMzMsImF1ZCI6IjcwN2NlMDIwMThlN2EzZWQyNThhOTY2NTcyYmRmMjM4YTAxNThkMDAiLCJkYXRhIjp7ImlkVXN1YXJpbyI6IjIiLCJub21icmUiOiJIdW1iZXJ0IiwiYXBlbGxpZG9zIjoiQ3VhdXRlbmNvIiwiZW1haWwiOiJodW1iZXJ0QHN0YXJkdXN0LmNvbS5teCIsInNleG8iOiJIIiwidXJsUGhvdG8iOm51bGwsInRlbGVmb25vIjoiNzc2MTA1MjIxMyJ9fQ.0iJ2BMd0M09Kwj5GLf9pdr8ChgFw2GnSu1nB96FQN1Y\n",
			"pathVariables": {}
		},
		{
			"id": "692e98be-86e3-4e59-9ec1-ad356603f5b8",
			"name": "Eliminar Direccion",
			"url": "{{url-lubo-go}}address/delete/2",
			"description": null,
			"data": null,
			"dataOptions": null,
			"dataMode": null,
			"headerData": [
				{
					"key": "Content-Type",
					"value": "application/json",
					"type": "text"
				},
				{
					"key": "auth-token",
					"value": "eyJ0eXAiOiJKV1QiLCJhbGciOiJIUzI1NiJ9.eyJleHAiOjE2NTM1MjQwMzMsImF1ZCI6IjcwN2NlMDIwMThlN2EzZWQyNThhOTY2NTcyYmRmMjM4YTAxNThkMDAiLCJkYXRhIjp7ImlkVXN1YXJpbyI6IjIiLCJub21icmUiOiJIdW1iZXJ0IiwiYXBlbGxpZG9zIjoiQ3VhdXRlbmNvIiwiZW1haWwiOiJodW1iZXJ0QHN0YXJkdXN0LmNvbS5teCIsInNleG8iOiJIIiwidXJsUGhvdG8iOm51bGwsInRlbGVmb25vIjoiNzc2MTA1MjIxMyJ9fQ.0iJ2BMd0M09Kwj5GLf9pdr8ChgFw2GnSu1nB96FQN1Y",
					"type": "text"
				}
			],
			"method": "DELETE",
			"pathVariableData": [],
			"queryParams": [],
			"auth": null,
			"events": null,
			"folder": "81d2a7f5-404f-4ab8-aea0-f117cb6cee3f",
			"responses": [
				{
					"id": "3c885b2b-0c69-481c-bf21-50e94b6260e8",
					"name": "Eliminar Direccion",
					"status": "OK",
					"mime": "",
					"language": "json",
					"text": "{\n    \"result\": 0,\n    \"response\": true,\n    \"message\": \"Direccion Eliminada.\",\n    \"errors\": \"\"\n}",
					"responseCode": {
						"code": 200,
						"name": "OK",
						"detail": ""
					},
					"requestObject": {
						"id": "951facfb-ca9f-478d-9ec2-31ac365a9263",
						"method": "DELETE",
						"headers": "Content-Type: application/json\nauth-token: eyJ0eXAiOiJKV1QiLCJhbGciOiJIUzI1NiJ9.eyJleHAiOjE2NTM1MjQwMzMsImF1ZCI6IjcwN2NlMDIwMThlN2EzZWQyNThhOTY2NTcyYmRmMjM4YTAxNThkMDAiLCJkYXRhIjp7ImlkVXN1YXJpbyI6IjIiLCJub21icmUiOiJIdW1iZXJ0IiwiYXBlbGxpZG9zIjoiQ3VhdXRlbmNvIiwiZW1haWwiOiJodW1iZXJ0QHN0YXJkdXN0LmNvbS5teCIsInNleG8iOiJIIiwidXJsUGhvdG8iOm51bGwsInRlbGVmb25vIjoiNzc2MTA1MjIxMyJ9fQ.0iJ2BMd0M09Kwj5GLf9pdr8ChgFw2GnSu1nB96FQN1Y",
						"url": "{{url-lubo-go}}address/delete/2",
						"pathVariableData": [],
						"queryParams": [],
						"headerData": [
							{
								"key": "Content-Type",
								"value": "application/json",
								"type": "text"
							},
							{
								"key": "auth-token",
								"value": "eyJ0eXAiOiJKV1QiLCJhbGciOiJIUzI1NiJ9.eyJleHAiOjE2NTM1MjQwMzMsImF1ZCI6IjcwN2NlMDIwMThlN2EzZWQyNThhOTY2NTcyYmRmMjM4YTAxNThkMDAiLCJkYXRhIjp7ImlkVXN1YXJpbyI6IjIiLCJub21icmUiOiJIdW1iZXJ0IiwiYXBlbGxpZG9zIjoiQ3VhdXRlbmNvIiwiZW1haWwiOiJodW1iZXJ0QHN0YXJkdXN0LmNvbS5teCIsInNleG8iOiJIIiwidXJsUGhvdG8iOm51bGwsInRlbGVmb25vIjoiNzc2MTA1MjIxMyJ9fQ.0iJ2BMd0M09Kwj5GLf9pdr8ChgFw2GnSu1nB96FQN1Y",
								"type": "text"
							}
						],
						"dataMode": null,
						"data": null
					},
					"headers": [
						{
							"key": "Date",
							"value": "Fri, 05 Jun 2020 03:30:29 GMT"
						},
						{
							"key": "Server",
							"value": "Apache/2.4.41 (Ubuntu)"
						},
						{
							"key": "Access-Control-Allow-Origin",
							"value": "*"
						},
						{
							"key": "Access-Control-Allow-Methods",
							"value": "GET, POST, PUT, DELETE"
						},
						{
							"key": "Content-Length",
							"value": "74"
						},
						{
							"key": "Keep-Alive",
							"value": "timeout=5, max=100"
						},
						{
							"key": "Connection",
							"value": "Keep-Alive"
						},
						{
							"key": "Content-Type",
							"value": "application/json"
						}
					],
					"cookies": [],
					"request": "692e98be-86e3-4e59-9ec1-ad356603f5b8",
					"collection": "bb4b6b76-aefc-49ee-8abb-e87bb13aa7e4"
				}
			],
			"headers": "Content-Type: application/json\nauth-token: eyJ0eXAiOiJKV1QiLCJhbGciOiJIUzI1NiJ9.eyJleHAiOjE2NTM1MjQwMzMsImF1ZCI6IjcwN2NlMDIwMThlN2EzZWQyNThhOTY2NTcyYmRmMjM4YTAxNThkMDAiLCJkYXRhIjp7ImlkVXN1YXJpbyI6IjIiLCJub21icmUiOiJIdW1iZXJ0IiwiYXBlbGxpZG9zIjoiQ3VhdXRlbmNvIiwiZW1haWwiOiJodW1iZXJ0QHN0YXJkdXN0LmNvbS5teCIsInNleG8iOiJIIiwidXJsUGhvdG8iOm51bGwsInRlbGVmb25vIjoiNzc2MTA1MjIxMyJ9fQ.0iJ2BMd0M09Kwj5GLf9pdr8ChgFw2GnSu1nB96FQN1Y\n",
			"pathVariables": {}
		},
		{
			"id": "7ebabfe7-bae4-497e-a0c2-6e4a1d39db0a",
			"name": "UpdatePassword/idUsuario",
			"url": "{{url-lubo-go}}user/updatePassword/1",
			"description": null,
			"data": [],
			"dataOptions": {
				"raw": {
					"language": "json"
				}
			},
			"dataMode": "raw",
			"headerData": [
				{
					"key": "auth-token",
					"value": "eyJ0eXAiOiJKV1QiLCJhbGciOiJIUzI1NiJ9.eyJleHAiOjE1OTA4ODk2NDAsImF1ZCI6IjMzNzQyMmE0NjMwMWY3Mjg0NmQ2ODNiY2YwNjg0Y2ExMjZjMzMzZjciLCJkYXRhIjp7InRva2VuUmVnaXN0cm8iOiJFNlRzWk0ifX0.kqQVmDQJB73tMta1v6_Ydx81KW3I9AYRfp9w7Vfj62o",
					"type": "text"
				},
				{
					"key": "Content-Type",
					"value": "application/json",
					"type": "text"
				}
			],
			"method": "PUT",
			"pathVariableData": [],
			"queryParams": [],
			"auth": null,
			"events": null,
			"folder": "c85d4938-b5b7-432e-9446-95bdcc16d98f",
			"rawModeData": "{\n\t\"Password\":\"123456\"\n}",
			"headers": "auth-token: eyJ0eXAiOiJKV1QiLCJhbGciOiJIUzI1NiJ9.eyJleHAiOjE1OTA4ODk2NDAsImF1ZCI6IjMzNzQyMmE0NjMwMWY3Mjg0NmQ2ODNiY2YwNjg0Y2ExMjZjMzMzZjciLCJkYXRhIjp7InRva2VuUmVnaXN0cm8iOiJFNlRzWk0ifX0.kqQVmDQJB73tMta1v6_Ydx81KW3I9AYRfp9w7Vfj62o\nContent-Type: application/json\n",
			"pathVariables": {}
		},
		{
			"id": "8457d4de-60a0-4098-9fca-3a36af7acf42",
			"name": "Obtener Establecimiento",
			"url": "{{url-lubo-go}}establishment/obtain/4",
			"description": "el parametro en la url es el id del establecimiento",
			"data": null,
			"dataOptions": null,
			"dataMode": null,
			"headerData": [
				{
					"key": "auth-token",
					"value": "eyJ0eXAiOiJKV1QiLCJhbGciOiJIUzI1NiJ9.eyJleHAiOjE2NTM5NDA0OTMsImF1ZCI6IjcwN2NlMDIwMThlN2EzZWQyNThhOTY2NTcyYmRmMjM4YTAxNThkMDAiLCJkYXRhIjp7ImlkVXN1YXJpbyI6IjIiLCJub21icmUiOiJIdW1iZXJ0IiwiYXBlbGxpZG9zIjoiQ3VhdXRlbmNvIiwiZW1haWwiOiJodW1iZXJ0QHN0YXJkdXN0LmNvbS5teCIsInNleG8iOiJIIiwidXJsUGhvdG8iOm51bGwsInRlbGVmb25vIjoiNzc2MTA1MjIxMyJ9fQ.kVC662_LYqYa9s-FXt0UsbwNsN5jp64Cy4MwjdTMhhA",
					"type": "text"
				},
				{
					"key": "Content-Type",
					"value": "application/json",
					"type": "text"
				}
			],
			"method": "GET",
			"pathVariableData": [],
			"queryParams": [],
			"auth": null,
			"events": null,
			"folder": "fc099b37-da05-4e4b-bfc0-5a618439e0bf",
			"responses": [
				{
					"id": "e174b38b-fc4f-4c8e-ae73-d28c97c33643",
					"name": "Obtener Establecimiento",
					"status": "OK",
					"mime": "",
					"language": "json",
					"text": "{\n    \"result\": {\n        \"idEstablecimiento\": \"4\",\n        \"nombre\": \"tres gatos\",\n        \"urlFoto\": \"\",\n        \"email\": \"tres_gatos@gmail.com\",\n        \"telefono\": \"7761052213\",\n        \"idTipoEstablecimiento\": \"7\",\n        \"idStatusEstablecimiento\": \"1\",\n        \"etiquetas\": \"tacos,tres,gatos,los tres gatos\",\n        \"calificacion\": \"5\",\n        \"idAdministrador\": \"4\",\n        \"urlPortada\": \"\",\n        \"calle\": \"Benito Jurez\",\n        \"numeroExterior\": \"19\",\n        \"numeroInterior\": \"\",\n        \"Municipio\": \"Huauchinango\",\n        \"Colonia\": \"Patoltecoya\",\n        \"Ciudad\": \"Huauchinango\",\n        \"Latitud\": \"20.209043\",\n        \"Longitud\": \"-98.033196\",\n        \"Estado\": \"Puebla\",\n        \"CodPostal\": \"73165\",\n        \"subcategorias\": [\n            {\n                \"descripcion\": \"Cafe\",\n                \"idSubCategorias\": \"2\"\n            },\n            {\n                \"descripcion\": \"Postres\",\n                \"idSubCategorias\": \"10\"\n            }\n        ],\n        \"envio\": \"25\"\n    },\n    \"response\": true,\n    \"message\": \"\",\n    \"errors\": \"\"\n}",
					"responseCode": {
						"code": 200,
						"name": "OK",
						"detail": ""
					},
					"requestObject": {
						"id": "49d577c8-47d3-4ff5-8f3a-e3edcef73d19",
						"method": "GET",
						"headers": "auth-token: eyJ0eXAiOiJKV1QiLCJhbGciOiJIUzI1NiJ9.eyJleHAiOjE2NTM5NDA0OTMsImF1ZCI6IjcwN2NlMDIwMThlN2EzZWQyNThhOTY2NTcyYmRmMjM4YTAxNThkMDAiLCJkYXRhIjp7ImlkVXN1YXJpbyI6IjIiLCJub21icmUiOiJIdW1iZXJ0IiwiYXBlbGxpZG9zIjoiQ3VhdXRlbmNvIiwiZW1haWwiOiJodW1iZXJ0QHN0YXJkdXN0LmNvbS5teCIsInNleG8iOiJIIiwidXJsUGhvdG8iOm51bGwsInRlbGVmb25vIjoiNzc2MTA1MjIxMyJ9fQ.kVC662_LYqYa9s-FXt0UsbwNsN5jp64Cy4MwjdTMhhA\nContent-Type: application/json",
						"url": "{{url-lubo-go}}establishment/obtain/4",
						"pathVariableData": [],
						"queryParams": [],
						"headerData": [
							{
								"key": "auth-token",
								"value": "eyJ0eXAiOiJKV1QiLCJhbGciOiJIUzI1NiJ9.eyJleHAiOjE2NTM5NDA0OTMsImF1ZCI6IjcwN2NlMDIwMThlN2EzZWQyNThhOTY2NTcyYmRmMjM4YTAxNThkMDAiLCJkYXRhIjp7ImlkVXN1YXJpbyI6IjIiLCJub21icmUiOiJIdW1iZXJ0IiwiYXBlbGxpZG9zIjoiQ3VhdXRlbmNvIiwiZW1haWwiOiJodW1iZXJ0QHN0YXJkdXN0LmNvbS5teCIsInNleG8iOiJIIiwidXJsUGhvdG8iOm51bGwsInRlbGVmb25vIjoiNzc2MTA1MjIxMyJ9fQ.kVC662_LYqYa9s-FXt0UsbwNsN5jp64Cy4MwjdTMhhA",
								"type": "text"
							},
							{
								"key": "Content-Type",
								"value": "application/json",
								"type": "text"
							}
						],
						"dataMode": null,
						"data": null
					},
					"headers": [
						{
							"key": "Date",
							"value": "Wed, 10 Jun 2020 03:39:49 GMT"
						},
						{
							"key": "Server",
							"value": "Apache/2.4.41 (Ubuntu)"
						},
						{
							"key": "Access-Control-Allow-Origin",
							"value": "*"
						},
						{
							"key": "Access-Control-Allow-Methods",
							"value": "GET, POST, PUT, DELETE"
						},
						{
							"key": "Content-Length",
							"value": "678"
						},
						{
							"key": "Keep-Alive",
							"value": "timeout=5, max=100"
						},
						{
							"key": "Connection",
							"value": "Keep-Alive"
						},
						{
							"key": "Content-Type",
							"value": "application/json"
						}
					],
					"cookies": [],
					"request": "8457d4de-60a0-4098-9fca-3a36af7acf42",
					"collection": "bb4b6b76-aefc-49ee-8abb-e87bb13aa7e4"
				}
			],
			"headers": "auth-token: eyJ0eXAiOiJKV1QiLCJhbGciOiJIUzI1NiJ9.eyJleHAiOjE2NTM5NDA0OTMsImF1ZCI6IjcwN2NlMDIwMThlN2EzZWQyNThhOTY2NTcyYmRmMjM4YTAxNThkMDAiLCJkYXRhIjp7ImlkVXN1YXJpbyI6IjIiLCJub21icmUiOiJIdW1iZXJ0IiwiYXBlbGxpZG9zIjoiQ3VhdXRlbmNvIiwiZW1haWwiOiJodW1iZXJ0QHN0YXJkdXN0LmNvbS5teCIsInNleG8iOiJIIiwidXJsUGhvdG8iOm51bGwsInRlbGVmb25vIjoiNzc2MTA1MjIxMyJ9fQ.kVC662_LYqYa9s-FXt0UsbwNsN5jp64Cy4MwjdTMhhA\nContent-Type: application/json\n",
			"pathVariables": {}
		},
		{
			"id": "9a220736-8640-4366-9550-2d83959a891f",
			"name": "Listar establecimientos por subcategoria",
			"url": "{{url-lubo-go}}establishment/toListForSubcategories/2",
			"description": "el parametro {id} en la url es el id de tipo de subcategoria",
			"data": null,
			"dataOptions": null,
			"dataMode": null,
			"headerData": [
				{
					"key": "Content-Type",
					"value": "application/json",
					"type": "text"
				},
				{
					"key": "auth-token",
					"value": "eyJ0eXAiOiJKV1QiLCJhbGciOiJIUzI1NiJ9.eyJleHAiOjE2NTMyODE4NjgsImF1ZCI6IjcwN2NlMDIwMThlN2EzZWQyNThhOTY2NTcyYmRmMjM4YTAxNThkMDAiLCJkYXRhIjp7ImlkVXN1YXJpbyI6IjIiLCJub21icmUiOiJIdW1iZXJ0IiwiYXBlbGxpZG9zIjoiQ3VhdXRlbmNvIiwiZW1haWwiOiJodW1iZXJ0QHN0YXJkdXN0LmNvbS5teCIsInNleG8iOiJIIiwidXJsUGhvdG8iOm51bGwsInRlbGVmb25vIjoiNzc2MTA1MjIxMyJ9fQ._yFx1lCnTql82FMVly9qhlIGe-zVbMQBQ2GqBeoRUGw",
					"type": "text"
				}
			],
			"method": "GET",
			"pathVariableData": [],
			"queryParams": [],
			"auth": null,
			"events": null,
			"folder": "fc099b37-da05-4e4b-bfc0-5a618439e0bf",
			"responses": [
				{
					"id": "a7f1b572-ff79-4b6c-80f7-ca1d60fe547e",
					"name": "Listar establecimientos por subcategoria",
					"status": "OK",
					"mime": "",
					"language": "json",
					"text": "{\n    \"result\": [\n        {\n            \"idEstablecimiento\": \"4\",\n            \"nombre\": \"tres gatos\",\n            \"urlFoto\": null,\n            \"email\": \"tres_gatos@gmail.com\",\n            \"telefono\": \"7761052213\",\n            \"calificacion\": \"5\",\n            \"descripcion\": \"Cafe\",\n            \"idSubCategorias\": \"2\"\n        },\n        {\n            \"idEstablecimiento\": \"5\",\n            \"nombre\": \"Cafe pahuatlan\",\n            \"urlFoto\": null,\n            \"email\": \"cafe_pauatlan@gmail.com\",\n            \"telefono\": \"7761052214\",\n            \"calificacion\": \"5\",\n            \"descripcion\": \"Cafe\",\n            \"idSubCategorias\": \"2\"\n        }\n    ],\n    \"response\": true,\n    \"message\": \"\",\n    \"errors\": \"\"\n}",
					"responseCode": {
						"code": 200,
						"name": "OK",
						"detail": ""
					},
					"requestObject": {
						"id": "2ab450a2-ba8e-4356-b74d-afd0fe1526a2",
						"method": "GET",
						"headers": "Content-Type: application/json\nauth-token: eyJ0eXAiOiJKV1QiLCJhbGciOiJIUzI1NiJ9.eyJleHAiOjE2NTMyODE4NjgsImF1ZCI6IjcwN2NlMDIwMThlN2EzZWQyNThhOTY2NTcyYmRmMjM4YTAxNThkMDAiLCJkYXRhIjp7ImlkVXN1YXJpbyI6IjIiLCJub21icmUiOiJIdW1iZXJ0IiwiYXBlbGxpZG9zIjoiQ3VhdXRlbmNvIiwiZW1haWwiOiJodW1iZXJ0QHN0YXJkdXN0LmNvbS5teCIsInNleG8iOiJIIiwidXJsUGhvdG8iOm51bGwsInRlbGVmb25vIjoiNzc2MTA1MjIxMyJ9fQ._yFx1lCnTql82FMVly9qhlIGe-zVbMQBQ2GqBeoRUGw",
						"url": "{{url-lubo-go}}establishment/toListForSubcategories/2",
						"pathVariableData": [],
						"queryParams": [],
						"headerData": [
							{
								"key": "Content-Type",
								"value": "application/json",
								"type": "text"
							},
							{
								"key": "auth-token",
								"value": "eyJ0eXAiOiJKV1QiLCJhbGciOiJIUzI1NiJ9.eyJleHAiOjE2NTMyODE4NjgsImF1ZCI6IjcwN2NlMDIwMThlN2EzZWQyNThhOTY2NTcyYmRmMjM4YTAxNThkMDAiLCJkYXRhIjp7ImlkVXN1YXJpbyI6IjIiLCJub21icmUiOiJIdW1iZXJ0IiwiYXBlbGxpZG9zIjoiQ3VhdXRlbmNvIiwiZW1haWwiOiJodW1iZXJ0QHN0YXJkdXN0LmNvbS5teCIsInNleG8iOiJIIiwidXJsUGhvdG8iOm51bGwsInRlbGVmb25vIjoiNzc2MTA1MjIxMyJ9fQ._yFx1lCnTql82FMVly9qhlIGe-zVbMQBQ2GqBeoRUGw",
								"type": "text"
							}
						],
						"dataMode": null,
						"data": null
					},
					"headers": [
						{
							"key": "Date",
							"value": "Wed, 03 Jun 2020 20:06:15 GMT"
						},
						{
							"key": "Server",
							"value": "Apache/2.4.41 (Ubuntu)"
						},
						{
							"key": "Access-Control-Allow-Origin",
							"value": "*"
						},
						{
							"key": "Access-Control-Allow-Methods",
							"value": "GET, POST, PUT, DELETE"
						},
						{
							"key": "Content-Length",
							"value": "421"
						},
						{
							"key": "Keep-Alive",
							"value": "timeout=5, max=100"
						},
						{
							"key": "Connection",
							"value": "Keep-Alive"
						},
						{
							"key": "Content-Type",
							"value": "application/json"
						}
					],
					"cookies": [],
					"request": "9a220736-8640-4366-9550-2d83959a891f",
					"collection": "bb4b6b76-aefc-49ee-8abb-e87bb13aa7e4"
				}
			],
			"headers": "Content-Type: application/json\nauth-token: eyJ0eXAiOiJKV1QiLCJhbGciOiJIUzI1NiJ9.eyJleHAiOjE2NTMyODE4NjgsImF1ZCI6IjcwN2NlMDIwMThlN2EzZWQyNThhOTY2NTcyYmRmMjM4YTAxNThkMDAiLCJkYXRhIjp7ImlkVXN1YXJpbyI6IjIiLCJub21icmUiOiJIdW1iZXJ0IiwiYXBlbGxpZG9zIjoiQ3VhdXRlbmNvIiwiZW1haWwiOiJodW1iZXJ0QHN0YXJkdXN0LmNvbS5teCIsInNleG8iOiJIIiwidXJsUGhvdG8iOm51bGwsInRlbGVmb25vIjoiNzc2MTA1MjIxMyJ9fQ._yFx1lCnTql82FMVly9qhlIGe-zVbMQBQ2GqBeoRUGw\n",
			"pathVariables": {}
		},
		{
			"id": "a15e0f7b-cf85-49c2-80b6-61705ef3232a",
			"name": "Agregar Direccion",
			"url": "{{url-lubo-go}}address/add",
			"description": "el parametro idUser o idEstablecimiento puede ser null segun sea el caso ",
			"data": [],
			"dataOptions": {
				"raw": {}
			},
			"dataMode": "raw",
			"headerData": [
				{
					"key": "Content-Type",
					"value": "application/json",
					"type": "text"
				},
				{
					"key": "auth-token",
					"value": "eyJ0eXAiOiJKV1QiLCJhbGciOiJIUzI1NiJ9.eyJleHAiOjE2NTM1MjQwMzMsImF1ZCI6IjcwN2NlMDIwMThlN2EzZWQyNThhOTY2NTcyYmRmMjM4YTAxNThkMDAiLCJkYXRhIjp7ImlkVXN1YXJpbyI6IjIiLCJub21icmUiOiJIdW1iZXJ0IiwiYXBlbGxpZG9zIjoiQ3VhdXRlbmNvIiwiZW1haWwiOiJodW1iZXJ0QHN0YXJkdXN0LmNvbS5teCIsInNleG8iOiJIIiwidXJsUGhvdG8iOm51bGwsInRlbGVmb25vIjoiNzc2MTA1MjIxMyJ9fQ.0iJ2BMd0M09Kwj5GLf9pdr8ChgFw2GnSu1nB96FQN1Y",
					"type": "text"
				}
			],
			"method": "POST",
			"pathVariableData": [],
			"queryParams": [],
			"auth": null,
			"events": null,
			"folder": "81d2a7f5-404f-4ab8-aea0-f117cb6cee3f",
			"responses": [
				{
					"id": "057eb5c4-c21b-45f2-b13e-101c95ed600e",
					"name": "Agregar Direccion",
					"status": "OK",
					"mime": "",
					"language": "json",
					"text": "{\n    \"result\": \"3\",\n    \"response\": true,\n    \"message\": \"\",\n    \"errors\": \"\"\n}",
					"responseCode": {
						"code": 200,
						"name": "OK",
						"detail": ""
					},
					"requestObject": {
						"id": "fd9bfcd7-89e9-4166-8c34-1dba191406b1",
						"method": "POST",
						"headers": "Content-Type: application/json\nauth-token: eyJ0eXAiOiJKV1QiLCJhbGciOiJIUzI1NiJ9.eyJleHAiOjE2NTM1MjQwMzMsImF1ZCI6IjcwN2NlMDIwMThlN2EzZWQyNThhOTY2NTcyYmRmMjM4YTAxNThkMDAiLCJkYXRhIjp7ImlkVXN1YXJpbyI6IjIiLCJub21icmUiOiJIdW1iZXJ0IiwiYXBlbGxpZG9zIjoiQ3VhdXRlbmNvIiwiZW1haWwiOiJodW1iZXJ0QHN0YXJkdXN0LmNvbS5teCIsInNleG8iOiJIIiwidXJsUGhvdG8iOm51bGwsInRlbGVmb25vIjoiNzc2MTA1MjIxMyJ9fQ.0iJ2BMd0M09Kwj5GLf9pdr8ChgFw2GnSu1nB96FQN1Y",
						"dataMode": "raw",
						"url": "{{url-lubo-go}}address/add",
						"pathVariableData": [],
						"queryParams": [],
						"headerData": [
							{
								"key": "Content-Type",
								"value": "application/json",
								"type": "text"
							},
							{
								"key": "auth-token",
								"value": "eyJ0eXAiOiJKV1QiLCJhbGciOiJIUzI1NiJ9.eyJleHAiOjE2NTM1MjQwMzMsImF1ZCI6IjcwN2NlMDIwMThlN2EzZWQyNThhOTY2NTcyYmRmMjM4YTAxNThkMDAiLCJkYXRhIjp7ImlkVXN1YXJpbyI6IjIiLCJub21icmUiOiJIdW1iZXJ0IiwiYXBlbGxpZG9zIjoiQ3VhdXRlbmNvIiwiZW1haWwiOiJodW1iZXJ0QHN0YXJkdXN0LmNvbS5teCIsInNleG8iOiJIIiwidXJsUGhvdG8iOm51bGwsInRlbGVmb25vIjoiNzc2MTA1MjIxMyJ9fQ.0iJ2BMd0M09Kwj5GLf9pdr8ChgFw2GnSu1nB96FQN1Y",
								"type": "text"
							}
						],
						"data": [],
						"rawModeData": "{\n\t\"Calle\":\"Benito Jurez\",\n\t\"numeroExterior\":\"19\",\n\t\"numeroInterior\":\"\",\n\t\"Colonia\":\"Patoltecoya\",\n\t\"Municipio\":\"Huauchinango\",\n\t\"Ciudad\":\"Huauchinango\",\n\t\"Latitud\":\"20.209043\",\n\t\"Longitud\":\"-98.033196\",\n\t\"Estado\":\"Puebla\",\n\t\"CodPostal\":\"73165\",\n\t\"Guardado\":\"0\",\n\t\"idUsuario\":null,\n\t\"idEstablecimiento\":\"4\"\n}"
					},
					"headers": [
						{
							"key": "Date",
							"value": "Fri, 05 Jun 2020 00:21:43 GMT"
						},
						{
							"key": "Server",
							"value": "Apache/2.4.41 (Ubuntu)"
						},
						{
							"key": "Access-Control-Allow-Origin",
							"value": "*"
						},
						{
							"key": "Access-Control-Allow-Methods",
							"value": "GET, POST, PUT, DELETE"
						},
						{
							"key": "Content-Length",
							"value": "56"
						},
						{
							"key": "Keep-Alive",
							"value": "timeout=5, max=100"
						},
						{
							"key": "Connection",
							"value": "Keep-Alive"
						},
						{
							"key": "Content-Type",
							"value": "application/json"
						}
					],
					"cookies": [],
					"request": "a15e0f7b-cf85-49c2-80b6-61705ef3232a",
					"collection": "bb4b6b76-aefc-49ee-8abb-e87bb13aa7e4"
				}
			],
			"rawModeData": "{\n\t\"Calle\":\"Benito Jurez\",\n\t\"numeroExterior\":\"19\",\n\t\"numeroInterior\":\"\",\n\t\"Colonia\":\"Patoltecoya\",\n\t\"Municipio\":\"Huauchinango\",\n\t\"Ciudad\":\"Huauchinango\",\n\t\"Latitud\":\"20.209043\",\n\t\"Longitud\":\"-98.033196\",\n\t\"Estado\":\"Puebla\",\n\t\"CodPostal\":\"73165\",\n\t\"Guardado\":\"0\",\n\t\"idUsuario\":null,\n\t\"idEstablecimiento\":\"4\"\n}",
			"headers": "Content-Type: application/json\nauth-token: eyJ0eXAiOiJKV1QiLCJhbGciOiJIUzI1NiJ9.eyJleHAiOjE2NTM1MjQwMzMsImF1ZCI6IjcwN2NlMDIwMThlN2EzZWQyNThhOTY2NTcyYmRmMjM4YTAxNThkMDAiLCJkYXRhIjp7ImlkVXN1YXJpbyI6IjIiLCJub21icmUiOiJIdW1iZXJ0IiwiYXBlbGxpZG9zIjoiQ3VhdXRlbmNvIiwiZW1haWwiOiJodW1iZXJ0QHN0YXJkdXN0LmNvbS5teCIsInNleG8iOiJIIiwidXJsUGhvdG8iOm51bGwsInRlbGVmb25vIjoiNzc2MTA1MjIxMyJ9fQ.0iJ2BMd0M09Kwj5GLf9pdr8ChgFw2GnSu1nB96FQN1Y\n",
			"pathVariables": {}
		},
		{
			"id": "a51c858d-e3da-460c-93b7-a511ea34607f",
			"name": "Buscar por etiquetas",
			"url": "{{url-lubo-go}}establishment/searchLike/p",
			"description": "el parametro \"p\" es en la url es la etiqueta por la que se hara el filtro",
			"data": null,
			"dataOptions": null,
			"dataMode": null,
			"headerData": [
				{
					"key": "Content-Type",
					"value": "application/json",
					"type": "text"
				},
				{
					"key": "auth-token",
					"value": "eyJ0eXAiOiJKV1QiLCJhbGciOiJIUzI1NiJ9.eyJleHAiOjE2NTMyODE4NjgsImF1ZCI6IjcwN2NlMDIwMThlN2EzZWQyNThhOTY2NTcyYmRmMjM4YTAxNThkMDAiLCJkYXRhIjp7ImlkVXN1YXJpbyI6IjIiLCJub21icmUiOiJIdW1iZXJ0IiwiYXBlbGxpZG9zIjoiQ3VhdXRlbmNvIiwiZW1haWwiOiJodW1iZXJ0QHN0YXJkdXN0LmNvbS5teCIsInNleG8iOiJIIiwidXJsUGhvdG8iOm51bGwsInRlbGVmb25vIjoiNzc2MTA1MjIxMyJ9fQ._yFx1lCnTql82FMVly9qhlIGe-zVbMQBQ2GqBeoRUGw",
					"type": "text"
				}
			],
			"method": "GET",
			"pathVariableData": [],
			"queryParams": [],
			"auth": null,
			"events": null,
			"folder": "fc099b37-da05-4e4b-bfc0-5a618439e0bf",
			"responses": [
				{
					"id": "2c04b05c-49a9-4bae-a218-03b666191952",
					"name": "{{url-lubo-go}}establishment/searchLike/g",
					"status": "OK",
					"mime": "",
					"language": "json",
					"text": "{\n    \"result\": [\n        {\n            \"idEstablecimiento\": \"5\",\n            \"nombre\": \"Cafe pahuatlan\",\n            \"urlFoto\": null,\n            \"email\": \"cafe@gmail.com\",\n            \"telefono\": \"7761052215\",\n            \"idTipoEstablecimiento\": \"7\",\n            \"idStatusEstablecimiento\": \"1\",\n            \"etiquetas\": \"cafe,pahuatlan,te,cafe pahuatlan\",\n            \"calificacion\": \"5\",\n            \"idAdministrador\": \"6\"\n        },\n        {\n            \"idEstablecimiento\": \"6\",\n            \"nombre\": \"pizza Napoli\",\n            \"urlFoto\": null,\n            \"email\": \"pizza_napoli@gmail.com\",\n            \"telefono\": \"7761052289\",\n            \"idTipoEstablecimiento\": \"7\",\n            \"idStatusEstablecimiento\": \"1\",\n            \"etiquetas\": \"pizza,napoli,pizza napoli, italiana, comida italiana\",\n            \"calificacion\": \"5\",\n            \"idAdministrador\": \"5\"\n        }\n    ],\n    \"response\": true,\n    \"message\": \"\",\n    \"errors\": \"\"\n}",
					"responseCode": {
						"code": 200,
						"name": "OK",
						"detail": ""
					},
					"requestObject": {
						"id": "131b0fd7-e462-4146-96d2-4d042213c87d",
						"method": "GET",
						"headers": "Content-Type: application/json\nauth-token: eyJ0eXAiOiJKV1QiLCJhbGciOiJIUzI1NiJ9.eyJleHAiOjE2NTMyODE4NjgsImF1ZCI6IjcwN2NlMDIwMThlN2EzZWQyNThhOTY2NTcyYmRmMjM4YTAxNThkMDAiLCJkYXRhIjp7ImlkVXN1YXJpbyI6IjIiLCJub21icmUiOiJIdW1iZXJ0IiwiYXBlbGxpZG9zIjoiQ3VhdXRlbmNvIiwiZW1haWwiOiJodW1iZXJ0QHN0YXJkdXN0LmNvbS5teCIsInNleG8iOiJIIiwidXJsUGhvdG8iOm51bGwsInRlbGVmb25vIjoiNzc2MTA1MjIxMyJ9fQ._yFx1lCnTql82FMVly9qhlIGe-zVbMQBQ2GqBeoRUGw",
						"url": "{{url-lubo-go}}establishment/searchLike/p",
						"pathVariableData": [],
						"queryParams": [],
						"headerData": [
							{
								"key": "Content-Type",
								"value": "application/json",
								"type": "text"
							},
							{
								"key": "auth-token",
								"value": "eyJ0eXAiOiJKV1QiLCJhbGciOiJIUzI1NiJ9.eyJleHAiOjE2NTMyODE4NjgsImF1ZCI6IjcwN2NlMDIwMThlN2EzZWQyNThhOTY2NTcyYmRmMjM4YTAxNThkMDAiLCJkYXRhIjp7ImlkVXN1YXJpbyI6IjIiLCJub21icmUiOiJIdW1iZXJ0IiwiYXBlbGxpZG9zIjoiQ3VhdXRlbmNvIiwiZW1haWwiOiJodW1iZXJ0QHN0YXJkdXN0LmNvbS5teCIsInNleG8iOiJIIiwidXJsUGhvdG8iOm51bGwsInRlbGVmb25vIjoiNzc2MTA1MjIxMyJ9fQ._yFx1lCnTql82FMVly9qhlIGe-zVbMQBQ2GqBeoRUGw",
								"type": "text"
							}
						],
						"dataMode": null,
						"data": null
					},
					"headers": [
						{
							"key": "Date",
							"value": "Wed, 03 Jun 2020 21:31:56 GMT"
						},
						{
							"key": "Server",
							"value": "Apache/2.4.41 (Ubuntu)"
						},
						{
							"key": "Access-Control-Allow-Origin",
							"value": "*"
						},
						{
							"key": "Access-Control-Allow-Methods",
							"value": "GET, POST, PUT, DELETE"
						},
						{
							"key": "Content-Length",
							"value": "604"
						},
						{
							"key": "Keep-Alive",
							"value": "timeout=5, max=100"
						},
						{
							"key": "Connection",
							"value": "Keep-Alive"
						},
						{
							"key": "Content-Type",
							"value": "application/json"
						}
					],
					"cookies": [],
					"request": "a51c858d-e3da-460c-93b7-a511ea34607f",
					"collection": "bb4b6b76-aefc-49ee-8abb-e87bb13aa7e4"
				}
			],
			"headers": "Content-Type: application/json\nauth-token: eyJ0eXAiOiJKV1QiLCJhbGciOiJIUzI1NiJ9.eyJleHAiOjE2NTMyODE4NjgsImF1ZCI6IjcwN2NlMDIwMThlN2EzZWQyNThhOTY2NTcyYmRmMjM4YTAxNThkMDAiLCJkYXRhIjp7ImlkVXN1YXJpbyI6IjIiLCJub21icmUiOiJIdW1iZXJ0IiwiYXBlbGxpZG9zIjoiQ3VhdXRlbmNvIiwiZW1haWwiOiJodW1iZXJ0QHN0YXJkdXN0LmNvbS5teCIsInNleG8iOiJIIiwidXJsUGhvdG8iOm51bGwsInRlbGVmb25vIjoiNzc2MTA1MjIxMyJ9fQ._yFx1lCnTql82FMVly9qhlIGe-zVbMQBQ2GqBeoRUGw\n",
			"pathVariables": {}
		},
		{
			"id": "ada20ec9-1b73-4c3f-9964-befefad82350",
			"name": "Actualizar Direccion",
			"url": "{{url-lubo-go}}address/update/2",
			"description": null,
			"data": [],
			"dataOptions": {
				"raw": {}
			},
			"dataMode": "raw",
			"headerData": [
				{
					"key": "Content-Type",
					"value": "application/json",
					"type": "text"
				},
				{
					"key": "auth-token",
					"value": "eyJ0eXAiOiJKV1QiLCJhbGciOiJIUzI1NiJ9.eyJleHAiOjE2NTM1MjQwMzMsImF1ZCI6IjcwN2NlMDIwMThlN2EzZWQyNThhOTY2NTcyYmRmMjM4YTAxNThkMDAiLCJkYXRhIjp7ImlkVXN1YXJpbyI6IjIiLCJub21icmUiOiJIdW1iZXJ0IiwiYXBlbGxpZG9zIjoiQ3VhdXRlbmNvIiwiZW1haWwiOiJodW1iZXJ0QHN0YXJkdXN0LmNvbS5teCIsInNleG8iOiJIIiwidXJsUGhvdG8iOm51bGwsInRlbGVmb25vIjoiNzc2MTA1MjIxMyJ9fQ.0iJ2BMd0M09Kwj5GLf9pdr8ChgFw2GnSu1nB96FQN1Y",
					"type": "text"
				}
			],
			"method": "PUT",
			"pathVariableData": [],
			"queryParams": [],
			"auth": null,
			"events": null,
			"folder": "81d2a7f5-404f-4ab8-aea0-f117cb6cee3f",
			"responses": [
				{
					"id": "b77f0384-aac9-40c7-b05d-b7f67bd30b29",
					"name": "Actualizar Direccion",
					"status": "OK",
					"mime": "",
					"language": "json",
					"text": "{\n    \"result\": 1,\n    \"response\": true,\n    \"message\": \"Actualización correcta.\",\n    \"errors\": \"\"\n}",
					"responseCode": {
						"code": 200,
						"name": "OK",
						"detail": ""
					},
					"requestObject": {
						"id": "2ec3989a-2550-4a04-8f03-9ddcdfed800c",
						"method": "PUT",
						"headers": "Content-Type: application/json\nauth-token: eyJ0eXAiOiJKV1QiLCJhbGciOiJIUzI1NiJ9.eyJleHAiOjE2NTM1MjQwMzMsImF1ZCI6IjcwN2NlMDIwMThlN2EzZWQyNThhOTY2NTcyYmRmMjM4YTAxNThkMDAiLCJkYXRhIjp7ImlkVXN1YXJpbyI6IjIiLCJub21icmUiOiJIdW1iZXJ0IiwiYXBlbGxpZG9zIjoiQ3VhdXRlbmNvIiwiZW1haWwiOiJodW1iZXJ0QHN0YXJkdXN0LmNvbS5teCIsInNleG8iOiJIIiwidXJsUGhvdG8iOm51bGwsInRlbGVmb25vIjoiNzc2MTA1MjIxMyJ9fQ.0iJ2BMd0M09Kwj5GLf9pdr8ChgFw2GnSu1nB96FQN1Y",
						"dataMode": "raw",
						"url": "{{url-lubo-go}}address/update/2",
						"pathVariableData": [],
						"queryParams": [],
						"headerData": [
							{
								"key": "Content-Type",
								"value": "application/json",
								"type": "text"
							},
							{
								"key": "auth-token",
								"value": "eyJ0eXAiOiJKV1QiLCJhbGciOiJIUzI1NiJ9.eyJleHAiOjE2NTM1MjQwMzMsImF1ZCI6IjcwN2NlMDIwMThlN2EzZWQyNThhOTY2NTcyYmRmMjM4YTAxNThkMDAiLCJkYXRhIjp7ImlkVXN1YXJpbyI6IjIiLCJub21icmUiOiJIdW1iZXJ0IiwiYXBlbGxpZG9zIjoiQ3VhdXRlbmNvIiwiZW1haWwiOiJodW1iZXJ0QHN0YXJkdXN0LmNvbS5teCIsInNleG8iOiJIIiwidXJsUGhvdG8iOm51bGwsInRlbGVmb25vIjoiNzc2MTA1MjIxMyJ9fQ.0iJ2BMd0M09Kwj5GLf9pdr8ChgFw2GnSu1nB96FQN1Y",
								"type": "text"
							}
						],
						"data": [],
						"rawModeData": "{\n\t\"idDireccion\": \"2\",\n\t\"Calle\": \"Benito Jurez\",\n\t\"numeroExterior\": \"19\",\n\t\"numeroInterior\": \"2\",\n\t\"Colonia\": \"Patoltecoya\",\n\t\"Municipio\": \"Huauchinango\",\n\t\"Ciudad\": \"Huauchinango\",\n\t\"Latitud\": \"20.209043\",\n\t\"Longitud\": \"-98.033196\",\n\t\"Estado\": \"Puebla\",\n\t\"CodPostal\": \"73165\",\n\t\"Guardado\": \"1\",\n\t\"idEstablecimiento\": null,\n\t\"idUsuario\": \"3\",\n\t\"status\": \"1\"\n}"
					},
					"headers": [
						{
							"key": "Date",
							"value": "Fri, 05 Jun 2020 03:23:14 GMT"
						},
						{
							"key": "Server",
							"value": "Apache/2.4.41 (Ubuntu)"
						},
						{
							"key": "Access-Control-Allow-Origin",
							"value": "*"
						},
						{
							"key": "Access-Control-Allow-Methods",
							"value": "GET, POST, PUT, DELETE"
						},
						{
							"key": "Content-Length",
							"value": "82"
						},
						{
							"key": "Keep-Alive",
							"value": "timeout=5, max=100"
						},
						{
							"key": "Connection",
							"value": "Keep-Alive"
						},
						{
							"key": "Content-Type",
							"value": "application/json"
						}
					],
					"cookies": [],
					"request": "ada20ec9-1b73-4c3f-9964-befefad82350",
					"collection": "bb4b6b76-aefc-49ee-8abb-e87bb13aa7e4"
				}
			],
			"rawModeData": "{\n\t\"idDireccion\": \"2\",\n\t\"Calle\": \"Benito Jurez\",\n\t\"numeroExterior\": \"19\",\n\t\"numeroInterior\": \"2\",\n\t\"Colonia\": \"Patoltecoya\",\n\t\"Municipio\": \"Huauchinango\",\n\t\"Ciudad\": \"Huauchinango\",\n\t\"Latitud\": \"20.209043\",\n\t\"Longitud\": \"-98.033196\",\n\t\"Estado\": \"Puebla\",\n\t\"CodPostal\": \"73165\",\n\t\"Guardado\": \"1\",\n\t\"idEstablecimiento\": null,\n\t\"idUsuario\": \"3\",\n\t\"status\": \"1\"\n}",
			"headers": "Content-Type: application/json\nauth-token: eyJ0eXAiOiJKV1QiLCJhbGciOiJIUzI1NiJ9.eyJleHAiOjE2NTM1MjQwMzMsImF1ZCI6IjcwN2NlMDIwMThlN2EzZWQyNThhOTY2NTcyYmRmMjM4YTAxNThkMDAiLCJkYXRhIjp7ImlkVXN1YXJpbyI6IjIiLCJub21icmUiOiJIdW1iZXJ0IiwiYXBlbGxpZG9zIjoiQ3VhdXRlbmNvIiwiZW1haWwiOiJodW1iZXJ0QHN0YXJkdXN0LmNvbS5teCIsInNleG8iOiJIIiwidXJsUGhvdG8iOm51bGwsInRlbGVmb25vIjoiNzc2MTA1MjIxMyJ9fQ.0iJ2BMd0M09Kwj5GLf9pdr8ChgFw2GnSu1nB96FQN1Y\n",
			"pathVariables": {}
		},
		{
			"id": "b3206b8c-7faa-44cd-b51a-a8c213e45a65",
			"name": "Registro de Usuarios",
			"url": "{{url-lubo-go}}user/registerUser",
			"description": null,
			"data": [],
			"dataOptions": {
				"raw": {
					"language": "json"
				}
			},
			"dataMode": "raw",
			"headerData": [
				{
					"key": "Content-Type",
					"type": "text",
					"value": "application/json"
				},
				{
					"key": "auth-token",
					"type": "text",
					"value": "eyJ0eXAiOiJKV1QiLCJhbGciOiJIUzI1NiJ9.eyJleHAiOjE1OTA3OTU3MTIsImF1ZCI6ImU4OGU1ZjFmNjUzYTFiZTYyNDkwYjI2M2U3MmM5Y2E2OTJlNTNkNjgiLCJkYXRhIjp7InRva2VuUmVnaXRybyI6IjA0MDAifX0.skh4tnKrkoqGucfD5GQZu_foS76mzJ9CQw6g6EW-q54"
				}
			],
			"method": "POST",
			"pathVariableData": [],
			"queryParams": [],
			"auth": null,
			"events": null,
			"folder": "31e2c8f9-3f91-40e9-8d33-bac1529e4ec4",
			"responses": [
				{
					"id": "5e429a10-9509-408a-bcd5-1d09dd1fc804",
					"name": "Registro de Usuarios",
					"status": "OK",
					"mime": "",
					"language": "json",
					"text": "{\n    \"result\": \"3\",\n    \"response\": true,\n    \"message\": \"Registro exitoso\",\n    \"errors\": \"\"\n}",
					"responseCode": {
						"code": 200,
						"name": "OK",
						"detail": ""
					},
					"requestObject": {
						"id": "437f9b23-9a68-41fc-903d-a5d20f7071f1",
						"method": "POST",
						"headers": "Content-Type: application/json\nauth-token: eyJ0eXAiOiJKV1QiLCJhbGciOiJIUzI1NiJ9.eyJleHAiOjE1OTA3OTU3MTIsImF1ZCI6ImU4OGU1ZjFmNjUzYTFiZTYyNDkwYjI2M2U3MmM5Y2E2OTJlNTNkNjgiLCJkYXRhIjp7InRva2VuUmVnaXRybyI6IjA0MDAifX0.skh4tnKrkoqGucfD5GQZu_foS76mzJ9CQw6g6EW-q54",
						"dataMode": "raw",
						"url": "{{url-lubo-go}}user/registerUser",
						"dataOptions": {
							"raw": {
								"language": "json"
							}
						},
						"pathVariableData": [],
						"queryParams": [],
						"headerData": [
							{
								"key": "Content-Type",
								"type": "text",
								"value": "application/json"
							},
							{
								"key": "auth-token",
								"type": "text",
								"value": "eyJ0eXAiOiJKV1QiLCJhbGciOiJIUzI1NiJ9.eyJleHAiOjE1OTA3OTU3MTIsImF1ZCI6ImU4OGU1ZjFmNjUzYTFiZTYyNDkwYjI2M2U3MmM5Y2E2OTJlNTNkNjgiLCJkYXRhIjp7InRva2VuUmVnaXRybyI6IjA0MDAifX0.skh4tnKrkoqGucfD5GQZu_foS76mzJ9CQw6g6EW-q54"
							}
						],
						"data": [],
						"rawModeData": "{\n\t\"nombre\":\"Humbert\",\n\t\"apellidos\":\"Cuautenco\",\n\t\"email\":\"humbert@stardust.com.mx\",\n\t\"password\":\"123456\",\n\t\"sexo\":\"H\",\n\t\"codigoPais\":\"52\",\n\t\"telefono\":\"7761052213\",\n\t\"idTipoUsuario\":2,\n\t\"tycos\":1,\n\t\"idCiudad\":2\n}"
					},
					"headers": [
						{
							"key": "Date",
							"value": "Fri, 29 May 2020 22:44:20 GMT"
						},
						{
							"key": "Server",
							"value": "Apache"
						},
						{
							"key": "X-Powered-By",
							"value": "PHP/7.4.5"
						},
						{
							"key": "Access-Control-Allow-Origin",
							"value": "*"
						},
						{
							"key": "Access-Control-Allow-Methods",
							"value": "GET, POST, PUT, DELETE"
						},
						{
							"key": "Upgrade",
							"value": "h2,h2c"
						},
						{
							"key": "Connection",
							"value": "Upgrade, Keep-Alive"
						},
						{
							"key": "Vary",
							"value": "Accept-Encoding,User-Agent"
						},
						{
							"key": "Content-Encoding",
							"value": "gzip"
						},
						{
							"key": "Content-Length",
							"value": "86"
						},
						{
							"key": "Keep-Alive",
							"value": "timeout=5"
						},
						{
							"key": "Content-Type",
							"value": "application/json"
						}
					],
					"cookies": [],
					"request": "b3206b8c-7faa-44cd-b51a-a8c213e45a65",
					"collection": "bb4b6b76-aefc-49ee-8abb-e87bb13aa7e4"
				}
			],
			"rawModeData": "{\n\t\"nombre\":\"Humbert\",\n\t\"apellidos\":\"Cuautenco\",\n\t\"email\":\"humbert@stardust.com.mx\",\n\t\"password\":\"123456\",\n\t\"sexo\":\"H\",\n\t\"codigoPais\":\"52\",\n\t\"telefono\":\"7761052213\",\n\t\"idTipoUsuario\":2,\n\t\"tycos\":1,\n\t\"idCiudad\":2\n}",
			"headers": "Content-Type: application/json\nauth-token: eyJ0eXAiOiJKV1QiLCJhbGciOiJIUzI1NiJ9.eyJleHAiOjE1OTA3OTU3MTIsImF1ZCI6ImU4OGU1ZjFmNjUzYTFiZTYyNDkwYjI2M2U3MmM5Y2E2OTJlNTNkNjgiLCJkYXRhIjp7InRva2VuUmVnaXRybyI6IjA0MDAifX0.skh4tnKrkoqGucfD5GQZu_foS76mzJ9CQw6g6EW-q54\n",
			"pathVariables": {}
		},
		{
			"id": "b6489d2d-083c-42f4-af93-bda17fea07f0",
			"name": "LoginAdministradorGeneral",
			"url": "{{url-lubo-go}}auth/loginAdministrador",
			"description": null,
			"data": [],
			"dataOptions": {
				"raw": {
					"language": "json"
				}
			},
			"dataMode": "raw",
			"headerData": [
				{
					"key": "Content-Type",
					"value": "application/json",
					"type": "text"
				}
			],
			"method": "POST",
			"pathVariableData": [],
			"queryParams": [],
			"auth": null,
			"events": null,
			"folder": "7c4d6a41-697d-4082-9bef-f2ce0a087171",
			"responses": [
				{
					"id": "62f4d5f3-cad4-43f2-9dac-d365bc18cf1b",
					"name": "LoginAdministradorGeneral",
					"status": "OK",
					"mime": "",
					"language": "json",
					"text": "{\n    \"result\": {\n        \"token\": \"eyJ0eXAiOiJKV1QiLCJhbGciOiJIUzI1NiJ9.eyJleHAiOjE2NTMwMDA0OTAsImF1ZCI6ImU4OGU1ZjFmNjUzYTFiZTYyNDkwYjI2M2U3MmM5Y2E2OTJlNTNkNjgiLCJkYXRhIjp7ImlkVXN1YXJpbyI6IjEiLCJub21icmUiOiJIdW1iZXJ0IiwiYXBlbGxpZG9zIjoiQ3VhdXRlbmNvIiwiZW1haWwiOiJodW1iZXJ0QHN0YXJkdXN0LmNvbS5teCIsInNleG8iOiJIIiwidXJsUGhvdG8iOm51bGwsInRlbGVmb25vIjoiNzc2MTA1MjIxMyJ9fQ.5A5ljZ3EziGnAPzu7EmAQwpEDC21fgiISO4CpXjILuk\",\n        \"id\": \"1\"\n    },\n    \"response\": true,\n    \"message\": \"\",\n    \"errors\": \"\"\n}",
					"responseCode": {
						"code": 200,
						"name": "OK",
						"detail": ""
					},
					"requestObject": {
						"id": "f9810851-04f0-45a2-9080-5be7b2315270",
						"method": "POST",
						"headers": "Content-Type: application/json",
						"dataMode": "raw",
						"url": "{{url-lubo-go}}auth/loginAdministrador",
						"dataOptions": {
							"raw": {
								"language": "json"
							}
						},
						"pathVariableData": [],
						"queryParams": [],
						"headerData": [
							{
								"key": "Content-Type",
								"value": "application/json",
								"type": "text"
							}
						],
						"data": [],
						"rawModeData": "{\n    \"user\": \"humbert@stardust.com.mx\",\n    \"password\": \"123456\",\n    \"token\": \"asdasdasasd56454asd4as56d4a6sd46as4d564as6d54a56sd46asd64asd548da9s8da9sd789f9qqw8w79qw8\",\n    \"plataforma\": \"web\"\n}"
					},
					"headers": [
						{
							"key": "Date",
							"value": "Fri, 29 May 2020 22:48:10 GMT"
						},
						{
							"key": "Server",
							"value": "Apache"
						},
						{
							"key": "X-Powered-By",
							"value": "PHP/7.4.5"
						},
						{
							"key": "Access-Control-Allow-Origin",
							"value": "*"
						},
						{
							"key": "Access-Control-Allow-Methods",
							"value": "GET, POST, PUT, DELETE"
						},
						{
							"key": "Upgrade",
							"value": "h2,h2c"
						},
						{
							"key": "Connection",
							"value": "Upgrade, Keep-Alive"
						},
						{
							"key": "Vary",
							"value": "Accept-Encoding,User-Agent"
						},
						{
							"key": "Content-Encoding",
							"value": "gzip"
						},
						{
							"key": "Content-Length",
							"value": "373"
						},
						{
							"key": "Keep-Alive",
							"value": "timeout=5"
						},
						{
							"key": "Content-Type",
							"value": "application/json"
						}
					],
					"cookies": [],
					"request": "b6489d2d-083c-42f4-af93-bda17fea07f0",
					"collection": "bb4b6b76-aefc-49ee-8abb-e87bb13aa7e4"
				}
			],
			"rawModeData": "{\n    \"user\": \"humbert@stardust.com.mx\",\n    \"password\": \"123456\",\n    \"token\": \"asdasdasasd56454asd4as56d4a6sd46as4d564as6d54a56sd46asd64asd548da9s8da9sd789f9qqw8w79qw8\",\n    \"plataforma\": \"web\"\n}",
			"headers": "Content-Type: application/json\n",
			"pathVariables": {}
		},
		{
			"id": "bf1b2a2e-c19b-42a3-8d5c-811af9b139df",
			"name": "LoginAdminCity",
			"url": "{{url-lubo-go}}auth/loginAdminCity",
			"description": null,
			"data": [],
			"dataOptions": {
				"raw": {
					"language": "json"
				}
			},
			"dataMode": "raw",
			"headerData": [
				{
					"key": "Content-Type",
					"value": "application/json",
					"type": "text"
				}
			],
			"method": "POST",
			"pathVariableData": [],
			"queryParams": [
				{
					"key": "",
					"value": null,
					"enabled": false
				}
			],
			"auth": null,
			"events": null,
			"folder": "e17e503e-cf3b-4149-b662-f6dc817165eb",
			"rawModeData": "{\n    \"user\": \"humbert@stardust.com.mx\",\n    \"password\": \"123456\",\n    \"token\": \"asdasdasasd56454asd4as56d4a6sd46as4d564as6d54a56sd46asd64asd548da9s8da9sd789f9qqw8w79qw8\",\n    \"plataforma\": \"web\"\n}",
			"headers": "Content-Type: application/json\n",
			"pathVariables": {}
		},
		{
			"id": "c64349f5-c7b7-41f9-bd68-c51c315ad526",
			"name": "ValidarNumero",
			"url": "{{url-lubo-go}}auth/validateNumber",
			"description": null,
			"data": [],
			"dataOptions": {
				"raw": {
					"language": "json"
				}
			},
			"dataMode": "raw",
			"headerData": [
				{
					"key": "Content-Type",
					"value": "application/json",
					"type": "text"
				}
			],
			"method": "POST",
			"pathVariableData": [],
			"queryParams": [],
			"auth": null,
			"events": null,
			"folder": "31e2c8f9-3f91-40e9-8d33-bac1529e4ec4",
			"protocolProfileBehavior": {
				"disabledSystemHeaders": {
					"content-type": true
				}
			},
			"responses": [
				{
					"id": "acf98349-17b6-43a7-9a75-dc5eeb075f31",
					"name": "ValidarNumero",
					"status": "OK",
					"mime": "",
					"language": "json",
					"text": "{\n    \"result\": \"8\",\n    \"response\": true,\n    \"message\": \"Código de verificación enviado al teléfono: 7761052213\",\n    \"errors\": \"\"\n}",
					"responseCode": {
						"code": 200,
						"name": "OK",
						"detail": ""
					},
					"requestObject": {
						"id": "9a49c017-a710-4dda-ac6d-e4c635b5c746",
						"method": "POST",
						"headers": "Content-Type: application/json",
						"dataMode": "raw",
						"url": "{{url-lubo-go}}auth/validateNumber",
						"dataOptions": {
							"raw": {
								"language": "json"
							}
						},
						"pathVariableData": [],
						"queryParams": [],
						"headerData": [
							{
								"key": "Content-Type",
								"value": "application/json",
								"type": "text"
							}
						],
						"data": [],
						"rawModeData": "{\n    \"codigoPais\": \"52\",\n    \"telefono\": \"7761052213\",\n    \"idTipoUsuario\": 2\n}"
					},
					"headers": [
						{
							"key": "Date",
							"value": "Fri, 29 May 2020 22:40:22 GMT"
						},
						{
							"key": "Server",
							"value": "Apache"
						},
						{
							"key": "X-Powered-By",
							"value": "PHP/7.4.5"
						},
						{
							"key": "Access-Control-Allow-Origin",
							"value": "*"
						},
						{
							"key": "Access-Control-Allow-Methods",
							"value": "GET, POST, PUT, DELETE"
						},
						{
							"key": "Upgrade",
							"value": "h2,h2c"
						},
						{
							"key": "Connection",
							"value": "Upgrade, Keep-Alive"
						},
						{
							"key": "Vary",
							"value": "Accept-Encoding,User-Agent"
						},
						{
							"key": "Content-Encoding",
							"value": "gzip"
						},
						{
							"key": "Content-Length",
							"value": "127"
						},
						{
							"key": "Keep-Alive",
							"value": "timeout=5"
						},
						{
							"key": "Content-Type",
							"value": "application/json"
						}
					],
					"cookies": [],
					"request": "c64349f5-c7b7-41f9-bd68-c51c315ad526",
					"collection": "bb4b6b76-aefc-49ee-8abb-e87bb13aa7e4"
				}
			],
			"rawModeData": "{\n    \"codigoPais\": \"52\",\n    \"telefono\": \"7761052213\",\n    \"idTipoUsuario\": 2\n}",
			"headers": "Content-Type: application/json\n",
			"pathVariables": {}
		},
		{
			"id": "cd4ded10-c67d-49f4-b934-598c63d4493b",
			"name": "LoginUser",
			"url": "{{url-lubo-go}}auth/loginUser",
			"description": null,
			"data": [],
			"dataOptions": {
				"raw": {
					"language": "json"
				}
			},
			"dataMode": "raw",
			"headerData": [
				{
					"key": "Content-Type",
					"value": "application/json",
					"type": "text"
				}
			],
			"method": "POST",
			"pathVariableData": [],
			"queryParams": [],
			"auth": null,
			"events": null,
			"folder": "cb26172b-5b71-4cc5-8bca-d5ee09b0c913",
			"responses": [
				{
					"id": "10e68745-b4a9-47ba-9087-4b682ce06054",
					"name": "LoginUser",
					"status": "OK",
					"mime": "",
					"language": "json",
					"text": "{\n    \"result\": {\n        \"token\": \"eyJ0eXAiOiJKV1QiLCJhbGciOiJIUzI1NiJ9.eyJleHAiOjE2NTMwMDAzNjgsImF1ZCI6ImU4OGU1ZjFmNjUzYTFiZTYyNDkwYjI2M2U3MmM5Y2E2OTJlNTNkNjgiLCJkYXRhIjp7ImlkVXN1YXJpbyI6IjIiLCJub21icmUiOiJIdW1iZXJ0IiwiYXBlbGxpZG9zIjoiQ3VhdXRlbmNvIiwiZW1haWwiOiJodW1iZXJ0QHN0YXJkdXN0LmNvbS5teCIsInNleG8iOiJIIiwidXJsUGhvdG8iOm51bGwsInRlbGVmb25vIjoiNzc2MTA1MjIxMyJ9fQ.f71TpYS5UCU4sc2DIdjdUK-RT1UdK4CZdIpA8jFDJ2I\",\n        \"id\": \"2\"\n    },\n    \"response\": true,\n    \"message\": \"\",\n    \"errors\": \"\"\n}",
					"responseCode": {
						"code": 200,
						"name": "OK",
						"detail": ""
					},
					"requestObject": {
						"id": "6e7e7fef-a699-447f-91ae-abb750747a60",
						"method": "POST",
						"headers": "Content-Type: application/json",
						"dataMode": "raw",
						"url": "{{url-lubo-go}}auth/loginUser",
						"dataOptions": {
							"raw": {
								"language": "json"
							}
						},
						"pathVariableData": [],
						"queryParams": [],
						"headerData": [
							{
								"key": "Content-Type",
								"value": "application/json",
								"type": "text"
							}
						],
						"data": [],
						"rawModeData": "{\n    \"user\": \"humbert@stardust.com.mx\",\n    \"password\": \"123456\",\n    \"token\": \"asdasdasasd56454asd4as56d4a6sd46as4d564as6d54a56sd46asd64asd548da9s8da9sd789f9qqw8w79qw8\",\n    \"plataforma\": \"web\"\n}"
					},
					"headers": [
						{
							"key": "Date",
							"value": "Fri, 29 May 2020 22:46:08 GMT"
						},
						{
							"key": "Server",
							"value": "Apache"
						},
						{
							"key": "X-Powered-By",
							"value": "PHP/7.4.5"
						},
						{
							"key": "Access-Control-Allow-Origin",
							"value": "*"
						},
						{
							"key": "Access-Control-Allow-Methods",
							"value": "GET, POST, PUT, DELETE"
						},
						{
							"key": "Upgrade",
							"value": "h2,h2c"
						},
						{
							"key": "Connection",
							"value": "Upgrade, Keep-Alive"
						},
						{
							"key": "Vary",
							"value": "Accept-Encoding,User-Agent"
						},
						{
							"key": "Content-Encoding",
							"value": "gzip"
						},
						{
							"key": "Content-Length",
							"value": "370"
						},
						{
							"key": "Keep-Alive",
							"value": "timeout=5"
						},
						{
							"key": "Content-Type",
							"value": "application/json"
						}
					],
					"cookies": [],
					"request": "cd4ded10-c67d-49f4-b934-598c63d4493b",
					"collection": "bb4b6b76-aefc-49ee-8abb-e87bb13aa7e4"
				}
			],
			"rawModeData": "{\n    \"user\": \"humbert@stardust.com.mx\",\n    \"password\": \"123456\",\n    \"token\": \"asdasdasasd56454asd4as56d4a6sd46as4d564as6d54a56sd46asd64asd548da9s8da9sd789f9qqw8w79qw8\",\n    \"plataforma\": \"web\"\n}",
			"headers": "Content-Type: application/json\n",
			"pathVariables": {}
		},
		{
			"id": "cfeed31d-10cb-4353-b655-6b919a95d4bc",
			"name": "Update Establecimiento",
			"url": "{{url-lubo-go}}establishment/update/5",
			"description": "el parametro en la url es el id de el establecimiento\nsubcategoria es un string dividido por \"-\" cada elemento es una subcategoria q se agrega al establecimiento",
			"data": [],
			"dataOptions": {
				"raw": {
					"language": "json"
				}
			},
			"dataMode": "raw",
			"headerData": [
				{
					"key": "auth-token",
					"value": "eyJ0eXAiOiJKV1QiLCJhbGciOiJIUzI1NiJ9.eyJleHAiOjE2NTMyODE4NjgsImF1ZCI6IjcwN2NlMDIwMThlN2EzZWQyNThhOTY2NTcyYmRmMjM4YTAxNThkMDAiLCJkYXRhIjp7ImlkVXN1YXJpbyI6IjIiLCJub21icmUiOiJIdW1iZXJ0IiwiYXBlbGxpZG9zIjoiQ3VhdXRlbmNvIiwiZW1haWwiOiJodW1iZXJ0QHN0YXJkdXN0LmNvbS5teCIsInNleG8iOiJIIiwidXJsUGhvdG8iOm51bGwsInRlbGVmb25vIjoiNzc2MTA1MjIxMyJ9fQ._yFx1lCnTql82FMVly9qhlIGe-zVbMQBQ2GqBeoRUGw",
					"type": "text"
				},
				{
					"key": "Content-Type",
					"value": "application/json",
					"type": "text"
				}
			],
			"method": "PUT",
			"pathVariableData": [],
			"queryParams": [],
			"auth": null,
			"events": null,
			"folder": "fc099b37-da05-4e4b-bfc0-5a618439e0bf",
			"responses": [
				{
					"id": "f7903346-7fc6-4a40-b010-f7ead7e87179",
					"name": "Update Establecimiento",
					"status": "OK",
					"mime": "",
					"language": "json",
					"text": "{\n    \"result\": {\n        \"nombre\": \"Tacos Los Tres Gatos\",\n        \"email\": \"humbert@stardust.com.mx\",\n        \"telefono\": \"7761052214\",\n        \"idTipoEstablecimiento\": 7,\n        \"etiquetas\": \"tacos,carne,los tacos,tres, gatos,los tres gatos\",\n        \"idAdministrador\": \"6\"\n    },\n    \"response\": true,\n    \"message\": \"\",\n    \"errors\": \"\"\n}",
					"responseCode": {
						"code": 200,
						"name": "OK",
						"detail": ""
					},
					"requestObject": {
						"id": "a009961a-40aa-41fa-bd24-b66805818621",
						"method": "PUT",
						"headers": "auth-token: eyJ0eXAiOiJKV1QiLCJhbGciOiJIUzI1NiJ9.eyJleHAiOjE2NTMyODE4NjgsImF1ZCI6IjcwN2NlMDIwMThlN2EzZWQyNThhOTY2NTcyYmRmMjM4YTAxNThkMDAiLCJkYXRhIjp7ImlkVXN1YXJpbyI6IjIiLCJub21icmUiOiJIdW1iZXJ0IiwiYXBlbGxpZG9zIjoiQ3VhdXRlbmNvIiwiZW1haWwiOiJodW1iZXJ0QHN0YXJkdXN0LmNvbS5teCIsInNleG8iOiJIIiwidXJsUGhvdG8iOm51bGwsInRlbGVmb25vIjoiNzc2MTA1MjIxMyJ9fQ._yFx1lCnTql82FMVly9qhlIGe-zVbMQBQ2GqBeoRUGw\nContent-Type: application/json",
						"dataMode": "raw",
						"url": "{{url-lubo-go}}establishment/update/5",
						"dataOptions": {
							"raw": {
								"language": "json"
							}
						},
						"pathVariableData": [],
						"queryParams": [],
						"headerData": [
							{
								"key": "auth-token",
								"value": "eyJ0eXAiOiJKV1QiLCJhbGciOiJIUzI1NiJ9.eyJleHAiOjE2NTMyODE4NjgsImF1ZCI6IjcwN2NlMDIwMThlN2EzZWQyNThhOTY2NTcyYmRmMjM4YTAxNThkMDAiLCJkYXRhIjp7ImlkVXN1YXJpbyI6IjIiLCJub21icmUiOiJIdW1iZXJ0IiwiYXBlbGxpZG9zIjoiQ3VhdXRlbmNvIiwiZW1haWwiOiJodW1iZXJ0QHN0YXJkdXN0LmNvbS5teCIsInNleG8iOiJIIiwidXJsUGhvdG8iOm51bGwsInRlbGVmb25vIjoiNzc2MTA1MjIxMyJ9fQ._yFx1lCnTql82FMVly9qhlIGe-zVbMQBQ2GqBeoRUGw",
								"type": "text"
							},
							{
								"key": "Content-Type",
								"value": "application/json",
								"type": "text"
							}
						],
						"data": [],
						"rawModeData": "{\n\t\"nombre\":\"Tacos Los Tres Gatos\",\n\t\"email\":\"humbert@stardust.com.mx\",\n\t\"telefono\":\"7761052214\",\n\t\"idTipoEstablecimiento\":7,\n\t\"subcategorias\":\"2-10\",\n\t\"etiquetas\":\"tacos,carne,los tacos,tres, gatos,los tres gatos\",\n\t\"idAdministrador\":\"6\"\n}\n\n"
					},
					"headers": [
						{
							"key": "Date",
							"value": "Wed, 03 Jun 2020 03:47:12 GMT"
						},
						{
							"key": "Server",
							"value": "Apache/2.4.41 (Ubuntu)"
						},
						{
							"key": "Access-Control-Allow-Origin",
							"value": "*"
						},
						{
							"key": "Access-Control-Allow-Methods",
							"value": "GET, POST, PUT, DELETE"
						},
						{
							"key": "Content-Length",
							"value": "255"
						},
						{
							"key": "Keep-Alive",
							"value": "timeout=5, max=100"
						},
						{
							"key": "Connection",
							"value": "Keep-Alive"
						},
						{
							"key": "Content-Type",
							"value": "application/json"
						}
					],
					"cookies": [],
					"request": "cfeed31d-10cb-4353-b655-6b919a95d4bc",
					"collection": "bb4b6b76-aefc-49ee-8abb-e87bb13aa7e4"
				}
			],
			"rawModeData": "{\n\t\"nombre\":\"Cafe pahuatlan\",\n\t\"email\":\"cafe@gmail.com\",\n\t\"telefono\":\"7761052215\",\n\t\"idTipoEstablecimiento\":7,\n\t\"subcategorias\":\"2-10-11\",\n\t\"etiquetas\":\"cafe,pahuatlan,te,cafe pahuatlan\",\n\t\"idAdministrador\":\"6\"\n}\n\n",
			"headers": "auth-token: eyJ0eXAiOiJKV1QiLCJhbGciOiJIUzI1NiJ9.eyJleHAiOjE2NTMyODE4NjgsImF1ZCI6IjcwN2NlMDIwMThlN2EzZWQyNThhOTY2NTcyYmRmMjM4YTAxNThkMDAiLCJkYXRhIjp7ImlkVXN1YXJpbyI6IjIiLCJub21icmUiOiJIdW1iZXJ0IiwiYXBlbGxpZG9zIjoiQ3VhdXRlbmNvIiwiZW1haWwiOiJodW1iZXJ0QHN0YXJkdXN0LmNvbS5teCIsInNleG8iOiJIIiwidXJsUGhvdG8iOm51bGwsInRlbGVmb25vIjoiNzc2MTA1MjIxMyJ9fQ._yFx1lCnTql82FMVly9qhlIGe-zVbMQBQ2GqBeoRUGw\nContent-Type: application/json\n",
			"pathVariables": {}
		},
		{
			"id": "d8533adc-dfb6-414e-bed3-c8b2a91f7273",
			"name": "Agregar Establecimiento",
			"url": "{{url-lubo-go}}establishment/add",
			"description": "subcategoria es un string dividido por \"-\" cada elemento es una subcategoria q se agrega al establecimiento",
			"data": [],
			"dataOptions": {
				"raw": {
					"language": "json"
				}
			},
			"dataMode": "raw",
			"headerData": [
				{
					"key": "auth-token",
					"type": "text",
					"value": "eyJ0eXAiOiJKV1QiLCJhbGciOiJIUzI1NiJ9.eyJleHAiOjE2NTMyODE4NjgsImF1ZCI6IjcwN2NlMDIwMThlN2EzZWQyNThhOTY2NTcyYmRmMjM4YTAxNThkMDAiLCJkYXRhIjp7ImlkVXN1YXJpbyI6IjIiLCJub21icmUiOiJIdW1iZXJ0IiwiYXBlbGxpZG9zIjoiQ3VhdXRlbmNvIiwiZW1haWwiOiJodW1iZXJ0QHN0YXJkdXN0LmNvbS5teCIsInNleG8iOiJIIiwidXJsUGhvdG8iOm51bGwsInRlbGVmb25vIjoiNzc2MTA1MjIxMyJ9fQ._yFx1lCnTql82FMVly9qhlIGe-zVbMQBQ2GqBeoRUGw"
				},
				{
					"key": "Content-Type",
					"type": "text",
					"value": "application/json"
				}
			],
			"method": "POST",
			"pathVariableData": [],
			"queryParams": [],
			"auth": null,
			"events": null,
			"folder": "fc099b37-da05-4e4b-bfc0-5a618439e0bf",
			"responses": [
				{
					"id": "1c4e1e71-9dd1-43ed-8146-360336742a7e",
					"name": "Agregar Establecimiento",
					"status": "OK",
					"mime": "",
					"language": "json",
					"text": "{\n    \"result\": \"6\",\n    \"response\": true,\n    \"message\": \"Registro exitoso\",\n    \"errors\": \"\"\n}",
					"responseCode": {
						"code": 200,
						"name": "OK",
						"detail": ""
					},
					"requestObject": {
						"id": "bc4c6282-08be-41f4-a6fc-0c89bbc77334",
						"method": "POST",
						"headers": "auth-token: eyJ0eXAiOiJKV1QiLCJhbGciOiJIUzI1NiJ9.eyJleHAiOjE2NTMyODE4NjgsImF1ZCI6IjcwN2NlMDIwMThlN2EzZWQyNThhOTY2NTcyYmRmMjM4YTAxNThkMDAiLCJkYXRhIjp7ImlkVXN1YXJpbyI6IjIiLCJub21icmUiOiJIdW1iZXJ0IiwiYXBlbGxpZG9zIjoiQ3VhdXRlbmNvIiwiZW1haWwiOiJodW1iZXJ0QHN0YXJkdXN0LmNvbS5teCIsInNleG8iOiJIIiwidXJsUGhvdG8iOm51bGwsInRlbGVmb25vIjoiNzc2MTA1MjIxMyJ9fQ._yFx1lCnTql82FMVly9qhlIGe-zVbMQBQ2GqBeoRUGw\nContent-Type: application/json",
						"dataMode": "raw",
						"url": "{{url-lubo-go}}establishment/add",
						"dataOptions": {
							"raw": {
								"language": "json"
							}
						},
						"pathVariableData": [],
						"queryParams": [],
						"headerData": [
							{
								"key": "auth-token",
								"type": "text",
								"value": "eyJ0eXAiOiJKV1QiLCJhbGciOiJIUzI1NiJ9.eyJleHAiOjE2NTMyODE4NjgsImF1ZCI6IjcwN2NlMDIwMThlN2EzZWQyNThhOTY2NTcyYmRmMjM4YTAxNThkMDAiLCJkYXRhIjp7ImlkVXN1YXJpbyI6IjIiLCJub21icmUiOiJIdW1iZXJ0IiwiYXBlbGxpZG9zIjoiQ3VhdXRlbmNvIiwiZW1haWwiOiJodW1iZXJ0QHN0YXJkdXN0LmNvbS5teCIsInNleG8iOiJIIiwidXJsUGhvdG8iOm51bGwsInRlbGVmb25vIjoiNzc2MTA1MjIxMyJ9fQ._yFx1lCnTql82FMVly9qhlIGe-zVbMQBQ2GqBeoRUGw"
							},
							{
								"key": "Content-Type",
								"type": "text",
								"value": "application/json"
							}
						],
						"data": [],
						"rawModeData": "{\n\t\"nombre\":\"pizza Napoli\",\n\t\"email\":\"pizza_napoli@gmail.com\",\n\t\"telefono\":\"7761052289\",\n\t\"idTipoEstablecimiento\":7,\n\t\"subcategorias\":\"5\",\n\t\"etiquetas\":\"pizza,napoli,pizza napoli, italiana, comida italiana\",\n\t\"idAdministrador\": 5\n}\n\n"
					},
					"headers": [
						{
							"key": "Date",
							"value": "Wed, 03 Jun 2020 03:21:20 GMT"
						},
						{
							"key": "Server",
							"value": "Apache/2.4.41 (Ubuntu)"
						},
						{
							"key": "Access-Control-Allow-Origin",
							"value": "*"
						},
						{
							"key": "Access-Control-Allow-Methods",
							"value": "GET, POST, PUT, DELETE"
						},
						{
							"key": "Content-Length",
							"value": "72"
						},
						{
							"key": "Keep-Alive",
							"value": "timeout=5, max=100"
						},
						{
							"key": "Connection",
							"value": "Keep-Alive"
						},
						{
							"key": "Content-Type",
							"value": "application/json"
						}
					],
					"cookies": [],
					"request": "d8533adc-dfb6-414e-bed3-c8b2a91f7273",
					"collection": "bb4b6b76-aefc-49ee-8abb-e87bb13aa7e4"
				}
			],
			"rawModeData": "{\n\t\"nombre\":\"pizza Napoli\",\n\t\"email\":\"pizza_napoli@gmail.com\",\n\t\"telefono\":\"7761052289\",\n\t\"idTipoEstablecimiento\":7,\n\t\"subcategorias\":\"5\",\n\t\"etiquetas\":\"pizza,napoli,pizza napoli, italiana, comida italiana\",\n\t\"idAdministrador\": 5\n}\n\n",
			"headers": "auth-token: eyJ0eXAiOiJKV1QiLCJhbGciOiJIUzI1NiJ9.eyJleHAiOjE2NTMyODE4NjgsImF1ZCI6IjcwN2NlMDIwMThlN2EzZWQyNThhOTY2NTcyYmRmMjM4YTAxNThkMDAiLCJkYXRhIjp7ImlkVXN1YXJpbyI6IjIiLCJub21icmUiOiJIdW1iZXJ0IiwiYXBlbGxpZG9zIjoiQ3VhdXRlbmNvIiwiZW1haWwiOiJodW1iZXJ0QHN0YXJkdXN0LmNvbS5teCIsInNleG8iOiJIIiwidXJsUGhvdG8iOm51bGwsInRlbGVmb25vIjoiNzc2MTA1MjIxMyJ9fQ._yFx1lCnTql82FMVly9qhlIGe-zVbMQBQ2GqBeoRUGw\nContent-Type: application/json\n",
			"pathVariables": {}
		},
		{
			"id": "e7c83574-8511-48af-a93a-b6d3c281573c",
			"name": "Listar Sub Categorias",
			"url": "{{url-lubo-go}}establishment/listSubcategories/7",
			"description": "el parametro en la url es el id del tipo de categoria ",
			"data": null,
			"dataOptions": null,
			"dataMode": null,
			"headerData": [
				{
					"key": "Content-Type",
					"value": "application/json",
					"type": "text"
				},
				{
					"key": "auth-token",
					"value": "eyJ0eXAiOiJKV1QiLCJhbGciOiJIUzI1NiJ9.eyJleHAiOjE2NTM1NzU2NDgsImF1ZCI6ImU4OGU1ZjFmNjUzYTFiZTYyNDkwYjI2M2U3MmM5Y2E2OTJlNTNkNjgiLCJkYXRhIjp7ImlkVXN1YXJpbyI6IjIiLCJub21icmUiOiJIdW1iZXJ0IiwiYXBlbGxpZG9zIjoiQ3VhdXRlbmNvIiwiZW1haWwiOiJodW1iZXJ0QHN0YXJkdXN0LmNvbS5teCIsInNleG8iOiJIIiwidXJsUGhvdG8iOm51bGwsInRlbGVmb25vIjoiNzc2MTA1MjIxMyJ9fQ.IQbh-nld85lnAzrV0qP3sDshPqHyDYJ39jsyj8nZdM8",
					"type": "text"
				}
			],
			"method": "GET",
			"pathVariableData": [],
			"queryParams": [],
			"auth": null,
			"events": null,
			"folder": "f73fc0d7-9a50-4739-ad46-e0f90072f508",
			"responses": [
				{
					"id": "18f8a69c-20d1-4530-8571-341e2a52158f",
					"name": "Listar Sub Categorias",
					"status": "OK",
					"mime": "",
					"language": "json",
					"text": "{\n    \"result\": [\n        {\n            \"idSubCategorias\": \"1\",\n            \"descripcion\": \"Asiatica\",\n            \"idTipoEstablecimiento\": \"7\",\n            \"urlImagen\": null\n        },\n        {\n            \"idSubCategorias\": \"2\",\n            \"descripcion\": \"Cafe\",\n            \"idTipoEstablecimiento\": \"7\",\n            \"urlImagen\": null\n        },\n        {\n            \"idSubCategorias\": \"3\",\n            \"descripcion\": \"Comida Rapida\",\n            \"idTipoEstablecimiento\": \"7\",\n            \"urlImagen\": null\n        },\n        {\n            \"idSubCategorias\": \"4\",\n            \"descripcion\": \"Desayunos\",\n            \"idTipoEstablecimiento\": \"7\",\n            \"urlImagen\": null\n        },\n        {\n            \"idSubCategorias\": \"5\",\n            \"descripcion\": \"Italiana\",\n            \"idTipoEstablecimiento\": \"7\",\n            \"urlImagen\": null\n        },\n        {\n            \"idSubCategorias\": \"6\",\n            \"descripcion\": \"Jugos y Licuados\",\n            \"idTipoEstablecimiento\": \"7\",\n            \"urlImagen\": null\n        },\n        {\n            \"idSubCategorias\": \"7\",\n            \"descripcion\": \"Mexicana\",\n            \"idTipoEstablecimiento\": \"7\",\n            \"urlImagen\": null\n        },\n        {\n            \"idSubCategorias\": \"8\",\n            \"descripcion\": \"Panaderia\",\n            \"idTipoEstablecimiento\": \"7\",\n            \"urlImagen\": null\n        },\n        {\n            \"idSubCategorias\": \"9\",\n            \"descripcion\": \"Pollos\",\n            \"idTipoEstablecimiento\": \"7\",\n            \"urlImagen\": null\n        },\n        {\n            \"idSubCategorias\": \"10\",\n            \"descripcion\": \"Postres\",\n            \"idTipoEstablecimiento\": \"7\",\n            \"urlImagen\": null\n        },\n        {\n            \"idSubCategorias\": \"11\",\n            \"descripcion\": \"Tacos\",\n            \"idTipoEstablecimiento\": \"7\",\n            \"urlImagen\": null\n        },\n        {\n            \"idSubCategorias\": \"12\",\n            \"descripcion\": \"Vegetariana\",\n            \"idTipoEstablecimiento\": \"7\",\n            \"urlImagen\": null\n        }\n    ],\n    \"response\": true,\n    \"message\": \"\",\n    \"errors\": \"\"\n}",
					"responseCode": {
						"code": 200,
						"name": "OK",
						"detail": ""
					},
					"requestObject": {
						"id": "a9db4fc3-7825-4671-9b7b-35aebd91f519",
						"method": "GET",
						"headers": "Content-Type: application/json\nauth-token: eyJ0eXAiOiJKV1QiLCJhbGciOiJIUzI1NiJ9.eyJleHAiOjE2NTMzNDMyMzUsImF1ZCI6IjcwN2NlMDIwMThlN2EzZWQyNThhOTY2NTcyYmRmMjM4YTAxNThkMDAiLCJkYXRhIjp7ImlkVXN1YXJpbyI6IjQiLCJub21icmUiOiJIdW1iZXJ0IiwiYXBlbGxpZG9zIjoiQ3VhdXRlbmNvIiwiZW1haWwiOiJodW1iZXJ0QHN0YXJkdXN0LmNvbS5teCIsInNleG8iOiJIIiwidXJsUGhvdG8iOm51bGwsInRlbGVmb25vIjoiNzc2MTA1MjIxMyJ9fQ.F-8WqbfFRsGF7slzN0ixcM_77B3VNAXOhZEMMra7dSg",
						"url": "{{url-lubo-go}}establishment/listSubcategories/7",
						"pathVariableData": [],
						"queryParams": [],
						"headerData": [
							{
								"key": "Content-Type",
								"value": "application/json",
								"type": "text"
							},
							{
								"key": "auth-token",
								"value": "eyJ0eXAiOiJKV1QiLCJhbGciOiJIUzI1NiJ9.eyJleHAiOjE2NTMzNDMyMzUsImF1ZCI6IjcwN2NlMDIwMThlN2EzZWQyNThhOTY2NTcyYmRmMjM4YTAxNThkMDAiLCJkYXRhIjp7ImlkVXN1YXJpbyI6IjQiLCJub21icmUiOiJIdW1iZXJ0IiwiYXBlbGxpZG9zIjoiQ3VhdXRlbmNvIiwiZW1haWwiOiJodW1iZXJ0QHN0YXJkdXN0LmNvbS5teCIsInNleG8iOiJIIiwidXJsUGhvdG8iOm51bGwsInRlbGVmb25vIjoiNzc2MTA1MjIxMyJ9fQ.F-8WqbfFRsGF7slzN0ixcM_77B3VNAXOhZEMMra7dSg",
								"type": "text"
							}
						],
						"dataMode": null,
						"data": null
					},
					"headers": [
						{
							"key": "Date",
							"value": "Tue, 02 Jun 2020 22:09:11 GMT"
						},
						{
							"key": "Server",
							"value": "Apache/2.4.41 (Ubuntu)"
						},
						{
							"key": "Access-Control-Allow-Origin",
							"value": "*"
						},
						{
							"key": "Access-Control-Allow-Methods",
							"value": "GET, POST, PUT, DELETE"
						},
						{
							"key": "Content-Length",
							"value": "1193"
						},
						{
							"key": "Keep-Alive",
							"value": "timeout=5, max=100"
						},
						{
							"key": "Connection",
							"value": "Keep-Alive"
						},
						{
							"key": "Content-Type",
							"value": "application/json"
						}
					],
					"cookies": [],
					"request": "e7c83574-8511-48af-a93a-b6d3c281573c",
					"collection": "bb4b6b76-aefc-49ee-8abb-e87bb13aa7e4"
				}
			],
			"headers": "Content-Type: application/json\nauth-token: eyJ0eXAiOiJKV1QiLCJhbGciOiJIUzI1NiJ9.eyJleHAiOjE2NTM1NzU2NDgsImF1ZCI6ImU4OGU1ZjFmNjUzYTFiZTYyNDkwYjI2M2U3MmM5Y2E2OTJlNTNkNjgiLCJkYXRhIjp7ImlkVXN1YXJpbyI6IjIiLCJub21icmUiOiJIdW1iZXJ0IiwiYXBlbGxpZG9zIjoiQ3VhdXRlbmNvIiwiZW1haWwiOiJodW1iZXJ0QHN0YXJkdXN0LmNvbS5teCIsInNleG8iOiJIIiwidXJsUGhvdG8iOm51bGwsInRlbGVmb25vIjoiNzc2MTA1MjIxMyJ9fQ.IQbh-nld85lnAzrV0qP3sDshPqHyDYJ39jsyj8nZdM8\n",
			"pathVariables": {}
		},
		{
			"id": "fc46fe71-d3da-4b40-9f3b-509a3760169c",
			"name": "LoginAdminEstablishment",
			"url": "{{url-lubo-go}}auth/loginAdminEstablishment",
			"description": null,
			"data": [],
			"dataOptions": {
				"raw": {
					"language": "json"
				}
			},
			"dataMode": "raw",
			"headerData": [
				{
					"key": "Content-Type",
					"value": "application/json",
					"type": "text"
				}
			],
			"method": "POST",
			"pathVariableData": [],
			"queryParams": [],
			"auth": null,
			"events": null,
			"folder": "fc099b37-da05-4e4b-bfc0-5a618439e0bf",
			"responses": [
				{
					"id": "4013b03b-b5dc-4375-80bf-e6758b3a22c0",
					"name": "LoginAdminEstablishment",
					"status": "OK",
					"mime": "",
					"language": "json",
					"text": "{\n    \"result\": {\n        \"token\": \"eyJ0eXAiOiJKV1QiLCJhbGciOiJIUzI1NiJ9.eyJleHAiOjE2NTMzNjI3NjEsImF1ZCI6IjcwN2NlMDIwMThlN2EzZWQyNThhOTY2NTcyYmRmMjM4YTAxNThkMDAiLCJkYXRhIjp7ImlkVXN1YXJpbyI6IjQiLCJub21icmUiOiJIdW1iZXJ0IiwiYXBlbGxpZG9zIjoiQ3VhdXRlbmNvIiwiZW1haWwiOiJodW1iZXJ0QHN0YXJkdXN0LmNvbS5teCIsInNleG8iOiJIIiwidXJsUGhvdG8iOm51bGwsInRlbGVmb25vIjoiNzc2MTA1MjIxMyJ9fQ.pWPL_JwMHRmL1pDVEPpXj-N8UA02UHYVJSGjR87RdlI\",\n        \"id\": \"4\"\n    },\n    \"response\": true,\n    \"message\": \"\",\n    \"errors\": \"\"\n}",
					"responseCode": {
						"code": 200,
						"name": "OK",
						"detail": ""
					},
					"requestObject": {
						"id": "f41d5aa4-4436-495e-a812-703fd0af6ffb",
						"method": "POST",
						"headers": "Content-Type: application/json",
						"dataMode": "raw",
						"url": "{{url-lubo-go}}auth/loginAdminEstablishment",
						"dataOptions": {
							"raw": {
								"language": "json"
							}
						},
						"pathVariableData": [],
						"queryParams": [],
						"headerData": [
							{
								"key": "Content-Type",
								"value": "application/json",
								"type": "text"
							}
						],
						"data": [],
						"rawModeData": "{\n    \"user\": \"humbert@stardust.com.mx\",\n    \"password\": \"123456\",\n    \"token\": \"asdasdasasd56454asd4as56d4a6sd46as4d564as6d54a56sd46asd64asd548da9s8da9sd789f9qqw8w79qw8\",\n    \"plataforma\": \"web\"\n}"
					},
					"headers": [
						{
							"key": "Date",
							"value": "Wed, 03 Jun 2020 03:25:52 GMT"
						},
						{
							"key": "Server",
							"value": "Apache/2.4.41 (Ubuntu)"
						},
						{
							"key": "Access-Control-Allow-Origin",
							"value": "*"
						},
						{
							"key": "Access-Control-Allow-Methods",
							"value": "GET, POST, PUT, DELETE"
						},
						{
							"key": "Content-Length",
							"value": "449"
						},
						{
							"key": "Keep-Alive",
							"value": "timeout=5, max=100"
						},
						{
							"key": "Connection",
							"value": "Keep-Alive"
						},
						{
							"key": "Content-Type",
							"value": "application/json"
						}
					],
					"cookies": [],
					"request": "fc46fe71-d3da-4b40-9f3b-509a3760169c",
					"collection": "bb4b6b76-aefc-49ee-8abb-e87bb13aa7e4"
				}
			],
			"rawModeData": "{\n    \"user\": \"humbert@stardust.com.mx\",\n    \"password\": \"123456\",\n    \"token\": \"asdasdasasd56454asd4as56d4a6sd46as4d564as6d54a56sd46asd64asd548da9s8da9sd789f9qqw8w79qw8\",\n    \"plataforma\": \"web\"\n}",
			"headers": "Content-Type: application/json\n",
			"pathVariables": {}
		}
	]
}